{
  "prepare_queue": {
    "installed": [],
    "uninstalled": []
  },
  "config_munge": {
    "files": {}
  },
  "installed_plugins": {
    "cordova-plugin-device": {
      "PACKAGE_NAME": "fr.cisc.all"
    },
    "cordova-plugin-whitelist": {
      "PACKAGE_NAME": "fr.cisc.all"
    }
  },
  "dependent_plugins": {}
}