<?xml version="1.0" encoding="utf-8"?>
<!-- Generator: Adobe Illustrator 16.0.0, SVG Export Plug-In . SVG Version: 6.00 Build 0)  -->
<!DOCTYPE svg PUBLIC "-//W3C//DTD SVG 1.1//EN" "http://www.w3.org/Graphics/SVG/1.1/DTD/svg11.dtd">
<svg version="1.1" id="Calque_1" xmlns="http://www.w3.org/2000/svg" xmlns:xlink="http://www.w3.org/1999/xlink" viewBox="0 0 1166.75 595.28" style="background-color: transparent;">
	 <g transform="translate(-142,-130) scale(1.75,1.75)">
<path d="M81.222,317.631c0,0,8.571-0.183,23.571-0.503c14.998-0.232,36.427-0.562,62.139-0.957
	c25.715-0.233,55.712-0.504,87.854-0.796c32.142-0.109,66.43-0.229,100.713-0.346c34.283,0.117,68.569,0.234,100.709,0.345
	c32.145,0.291,62.141,0.56,87.854,0.793c25.715,0.396,47.14,0.727,62.139,0.959c15,0.318,23.57,0.505,23.57,0.505
	s-8.57,0.186-23.57,0.507c-14.999,0.231-36.424,0.561-62.139,0.958c-25.714,0.234-55.71,0.503-87.854,0.794
	c-32.141,0.11-66.426,0.227-100.709,0.344c-34.283-0.117-68.571-0.237-100.713-0.345c-32.142-0.293-62.138-0.563-87.854-0.796
	c-25.711-0.396-47.141-0.727-62.139-0.958C89.793,317.813,81.222,317.631,81.222,317.631z"/>
<g>
	<path fill="#01040A" d="M309.596,189.095h-28.07c-0.409-5.661-2.111-10.79-5.11-15.389c-3.004-4.598-6.97-8.513-11.902-11.741
		c-4.935-3.228-10.677-5.705-17.24-7.43c-6.561-1.726-13.603-2.585-21.128-2.585c-10.375,0-19.755,1.57-28.146,4.707
		c-8.391,3.141-15.538,7.786-21.437,13.931c-5.898,6.148-10.449,13.708-13.655,22.685c-3.204,8.977-4.803,19.302-4.803,30.976
		c0,11.674,1.575,22.023,4.728,31.042c3.151,9.023,7.679,16.606,13.577,22.753c5.899,6.146,12.971,10.835,21.208,14.063
		c8.239,3.229,17.492,4.842,27.765,4.842c8.034,0,15.382-0.862,22.044-2.587c6.662-1.726,12.409-4.29,17.24-7.696
		c4.829-3.403,8.695-7.561,11.596-12.468c2.897-4.909,4.651-10.548,5.263-16.914h28.07c-1.019,9.55-3.791,18.041-8.313,25.472
		c-4.529,7.428-10.453,13.708-17.776,18.836c-7.32,5.131-15.865,9.045-25.63,11.741c-9.765,2.694-20.394,4.045-31.884,4.045
		c-14.747,0-28.07-2.19-39.971-6.565c-11.899-4.379-22.022-10.613-30.359-18.705c-8.34-8.094-14.747-17.863-19.223-29.318
		c-4.477-11.454-6.711-24.298-6.711-38.539c0-14.148,2.263-26.952,6.788-38.407c4.526-11.451,10.985-21.223,19.376-29.316
		c8.391-8.09,18.507-14.327,30.358-18.704c11.848-4.378,25.097-6.568,39.742-6.568c10.881,0,21.179,1.374,30.893,4.113
		c9.71,2.743,18.308,6.633,25.784,11.675c7.474,5.041,13.577,11.124,18.307,18.241C305.705,172.402,308.577,180.338,309.596,189.095
		z"/>
	<path fill="#01040A" d="M378.4,316.125h-27.309V169.483H378.4V316.125z"/>
	<path fill="#01040A" d="M505.64,317.376c-14.549,0-27.267-1.506-38.142-4.512c-10.887-3.005-19.96-7.206-27.235-12.599
		c-7.274-5.395-12.79-11.83-16.551-19.304c-3.765-7.473-5.799-15.676-6.103-24.61h26.246c0.7,6.811,2.789,12.715,6.248,17.709
		c3.457,4.999,7.882,9.134,13.272,12.406c5.394,3.273,11.569,5.684,18.539,7.231c6.96,1.546,14.417,2.318,22.354,2.318
		c7.72,0,14.741-0.704,21.05-2.121c6.308-1.413,11.688-3.447,16.163-6.101c4.479-2.653,7.936-5.856,10.38-9.619
		c2.439-3.757,3.662-8.024,3.662-12.801c0-4.952-1.12-9.13-3.36-12.537c-2.238-3.404-5.869-6.387-10.905-8.954
		c-5.035-2.564-11.666-4.863-19.907-6.897s-18.305-4.112-30.208-6.236c-11.596-2.3-21.589-4.91-29.981-7.826
		c-8.386-2.921-15.282-6.347-20.666-10.282c-5.391-3.935-9.388-8.467-11.978-13.599c-2.595-5.128-3.891-11.01-3.891-17.643
		c0-7.251,1.779-13.93,5.341-20.032c3.558-6.103,8.566-11.364,15.026-15.788c6.46-4.42,14.191-7.87,23.187-10.347
		c9.003-2.475,18.993-3.713,29.981-3.713c11.588,0,22.141,1.238,31.652,3.713c9.51,2.477,17.722,6.036,24.64,10.68
		c6.919,4.642,12.359,10.304,16.318,16.979c3.969,6.68,6.104,14.218,6.412,22.62h-26.546c-2.748-21.668-19.827-32.503-51.254-32.503
		c-15.364,0-27.185,2.477-35.479,7.431c-8.291,4.953-12.434,11.631-12.434,20.031c0,3.802,0.765,7.053,2.291,9.748
		c1.526,2.7,4.122,5.064,7.783,7.099c3.662,2.035,8.547,3.87,14.64,5.504c6.105,1.639,13.685,3.296,22.74,4.975
		c6.194,1.15,12.554,2.368,19.064,3.647c6.513,1.284,12.838,2.854,18.995,4.711c6.152,1.856,11.975,4.093,17.468,6.7
		c5.492,2.61,10.297,5.77,14.414,9.483c4.121,3.715,7.379,8.118,9.77,13.201c2.391,5.088,3.58,11.034,3.58,17.843
		c0,7.872-1.9,15.103-5.718,21.691c-3.814,6.587-9.136,12.269-15.941,17.045c-6.816,4.774-14.906,8.515-24.257,11.211
		C526.943,316.025,516.722,317.376,505.64,317.376z"/>
</g>
<g>
	<path fill="#00A8D7" d="M348.113,387.329c-6.417,1.979-12.445,2.974-18.087,2.974c-5.227,0-9.546-0.712-12.959-2.133
		c-3.882-1.594-5.823-3.888-5.823-6.855c0-3.54,3.103-7.608,9.314-12.229c6.209-4.611,11.771-6.917,16.69-6.917
		c2.121,0,3.958,0.388,5.509,1.158c1.555,0.781,2.459,1.88,2.72,3.302c0.155,0.645,0,1.178-0.467,1.581
		c-0.467,0.414-1.036,0.618-1.707,0.618c-1.143,0-1.839-0.495-2.097-1.49c-0.207-0.513-1.527-0.773-3.958-0.773
		c-3.674,0-8.047,1.895-13.119,5.691c-5.071,3.795-7.608,6.81-7.608,9.06c0,1.291,1.012,2.451,3.028,3.491
		c2.431,1.21,5.926,1.811,10.478,1.811c5.228,0,10.895-0.693,17-2.073c0.311-0.086,0.596-0.126,0.857-0.126
		c1.238,0,1.859,0.453,1.859,1.358C349.742,386.462,349.201,386.98,348.113,387.329z"/>
	<path fill="#00A8D7" d="M391.427,372.32c0,4.181-1.914,8.15-5.743,11.903c-4.089,4.01-8.822,6.014-14.206,6.014
		c-4.81,0-8.692-1.637-11.643-4.915c-2.588-2.928-3.88-6.431-3.88-10.478c0-2.545,0.621-4.722,1.86-6.533
		c1.503-2.076,3.599-3.105,6.291-3.105c1.397,0,2.768,0.472,4.113,1.422c1.036,0.732,1.733,1.491,2.096,2.262
		c0.156,0.258,0.235,0.521,0.235,0.776c0,1.122-0.779,1.684-2.332,1.684c-0.621,0-1.115-0.169-1.476-0.516
		c-0.724-0.825-1.551-1.23-2.481-1.23c-1.968,0-2.95,1.746-2.95,5.241c0,3.063,0.8,5.646,2.407,7.761
		c1.86,2.459,4.449,3.684,7.76,3.684c4.039,0,7.686-1.506,10.946-4.529c3.26-3.016,4.89-6.162,4.89-9.439
		c0-2.116-1.033-3.938-3.104-5.462c-2.071-1.54-4.476-2.299-7.219-2.299c-2.794,0-4.581,0.038-5.356,0.132
		c-0.259,0.043-0.492,0.061-0.698,0.061c-1.296,0-1.942-0.389-1.942-1.166c0-0.604,0.516-1.071,1.556-1.418
		c1.705-0.653,3.853-0.975,6.441-0.975c3.827,0,7.141,1.016,9.935,3.038C389.927,366.391,391.427,369.085,391.427,372.32z"/>
	<path fill="#00A8D7" d="M461.369,388.233c-2.172,2.849-5.406,4.27-9.7,4.27c-3.261,0-5.44-1.21-6.522-3.625
		c-0.729-1.684-1.4-5.712-2.019-12.09c-0.418-4.014-0.904-6.665-1.479-7.961c-0.929-2.199-2.713-3.301-5.355-3.301
		c-5.021,0-10.584,3.752-16.687,11.262c-2.485,3.104-4.969,6.185-7.454,9.246c-2.587,2.844-4.683,4.269-6.286,4.269
		c-3.625,0-5.746-2.333-6.367-6.984c-0.466-2.98-1.087-8.303-1.863-15.981c-0.103-1.641,0.723-2.452,2.484-2.452
		c1.553,0,2.432,0.755,2.64,2.261c0.051,3.366,0.409,8.491,1.087,15.394c0.258,1.767,0.489,2.915,0.699,3.43
		c0.205,0.514,0.567,0.78,1.084,0.78c0.674,0,2.537-1.858,5.589-5.567c1.708-2.158,3.417-4.314,5.125-6.469
		c3.415-4.098,6.39-7.156,8.925-9.187c3.832-3.012,7.504-4.529,11.022-4.529c4.35,0,7.452,1.317,9.315,3.948
		c1.553,2.2,2.613,5.992,3.185,11.382c0.261,2.893,0.514,5.78,0.779,8.669c0.46,2.37,1.342,3.563,2.634,3.563
		c1.969,0,3.854-0.479,5.669-1.426c0.829-0.557,1.633-0.844,2.403-0.844c0.932,0,1.4,0.345,1.4,1.04
		C461.68,387.587,461.576,387.888,461.369,388.233z"/>
	<path fill="#00A8D7" d="M503.908,382.087c0,3.534-3.803,5.883-11.411,7.052c-5.435,0.864-13.999,1.29-25.696,1.29
		c-1.86,0-2.792-0.64-2.792-1.937c0-1.378,0.932-2.071,2.792-2.071c8.643,0,14.466-0.086,17.469-0.261
		c10.245-0.558,15.367-1.914,15.367-4.073c0-1.165-4.837-2.282-14.518-3.363c-2.842-0.301-5.974-0.737-9.39-1.297
		c-6.11-0.988-9.16-2.843-9.16-5.561c0-3.188,3.597-6.121,10.789-8.793c5.18-1.944,9.569-2.914,13.199-2.914
		c1.654,0,3.348,0.491,5.082,1.491c1.735,0.989,2.6,2.155,2.6,3.486c0,1.166-0.748,1.752-2.25,1.752
		c-1.035,0-1.697-0.435-1.975-1.29c-0.287-0.864-1.469-1.3-3.54-1.3c-2.378,0-5.56,0.646-9.547,1.937
		c-6.051,1.901-9.08,3.755-9.08,5.565c0,0.991,1.4,1.705,4.19,2.137c2.021,0.348,5.308,0.819,9.86,1.426
		c5.224,0.513,8.852,1.011,10.867,1.483C501.526,378.013,503.908,379.758,503.908,382.087z"/>
	<path fill="#00A8D7" d="M551.57,365.526c0,5.004-1.787,9.876-5.357,14.618c-5.124,6.729-12.683,10.093-22.665,10.093
		c-5.174,0-9.056-1.525-11.645-4.59c-2.229-2.637-3.337-6.103-3.337-10.418c0-1.983,0.311-4.094,0.929-6.34
		c0.726-2.714,1.739-4.699,3.026-5.948c0.623-0.56,1.294-0.846,2.023-0.846c0.671,0,1.251,0.219,1.744,0.652
		c0.492,0.426,0.735,0.926,0.735,1.483c0,0.521-0.231,1.02-0.695,1.491c-0.882,0.905-1.607,2.396-2.179,4.461
		c-0.46,1.812-0.695,3.558-0.695,5.239c0,7.288,3.361,10.938,10.093,10.938c8.433,0,14.851-2.616,19.248-7.834
		c3.311-3.919,4.969-8.252,4.969-13.001c0-0.687-0.387-1.465-1.165-2.324c-0.417-0.436-0.622-0.861-0.622-1.3
		c0-1.199,0.672-1.811,2.022-1.811c0.513,0,1.005,0.219,1.474,0.652C550.867,361.861,551.57,363.458,551.57,365.526z"/>
	<path fill="#00A8D7" d="M573.301,388.492c-1.761,1.206-4.088,1.811-6.982,1.811c-4.664,0-6.99-2.59-6.99-7.764
		c0-5.825,1.266-20.852,3.804-45.083c0.102-1.121,0.802-1.685,2.095-1.685c1.604,0,2.332,0.668,2.176,2.008
		c-1.763,16.771-2.642,31.69-2.642,44.76c0,2.03,0.466,3.21,1.397,3.556c1.089,0.438,2.845,0.326,5.281-0.319
		c0.41-0.087,0.797-0.128,1.166-0.128c1.187,0,1.782,0.407,1.782,1.227C574.388,387.44,574.023,387.97,573.301,388.492z"/>
	<path fill="#00A8D7" d="M611.57,361.65c-4.5,0.518-10.846,1.502-19.019,2.97c-1.45,8.066-2.175,13.093-2.175,15.076
		c0,2.452,0.454,4.16,1.359,5.109c0.906,0.943,2.523,1.422,4.847,1.422c4.452,0,8.258-0.818,11.417-2.462
		c0.513-0.296,1.031-0.447,1.552-0.447c0.979,0,1.475,0.365,1.475,1.099c0,0.474-0.312,0.966-0.933,1.487
		c-0.519,0.343-1.84,1.122-3.961,2.329c-2.845,1.422-6.028,2.136-9.55,2.136c-4.45,0-7.397-1.098-8.846-3.301
		c-0.981-1.38-1.477-3.842-1.477-7.372c0-2.416,0.647-7.163,1.94-14.234c-4.141,0.822-6.801,1.427-7.992,1.811
		c-0.366,0.137-0.701,0.193-1.012,0.193c-0.724,0-1.315-0.223-1.786-0.68c-0.463-0.448-0.695-0.977-0.695-1.58
		c0-0.907,0.542-1.532,1.626-1.88c2.69-0.856,6.238-1.597,10.639-2.197c0.778-4.834,1.549-10.69,2.326-17.596
		c0.155-1.421,1.06-2.13,2.721-2.13c1.809,0,2.64,0.772,2.479,2.325c-0.259,1.983-1.316,7.615-3.179,16.884
		c6.363-0.694,12.342-1.037,17.93-1.037c0.934,0,1.395,0.369,1.395,1.102C612.652,361.239,612.294,361.56,611.57,361.65z"/>
	<path fill="#00A8D7" d="M626.551,362.81c0,2.203-0.273,5.468-0.818,9.801c-0.538,4.333-0.813,7.578-0.813,9.737
		c0,0.949,0.049,1.876,0.158,2.78c0,0.52,0.126,1.233,0.386,2.139c0.311,0.385,0.467,0.773,0.467,1.16
		c0,0.561-0.297,1.035-0.895,1.425c-0.592,0.386-1.28,0.577-2.054,0.577c-2.54,0-3.647-1.79-3.337-5.364
		c0.152-1.595,0.672-5.286,1.55-11.063c0.671-4.569,1.008-8.305,1.008-11.191c0-1.159,0.724-1.745,2.171-1.745
		C625.823,361.064,626.551,361.65,626.551,362.81z M628.647,354.141c0,0.694-0.375,1.26-1.128,1.72
		c-0.75,0.445-1.696,0.677-2.836,0.677c-1.133,0-2.08-0.231-2.832-0.677c-0.748-0.46-1.126-1.025-1.126-1.72
		c0-0.688,0.36-1.273,1.091-1.745c0.721-0.472,1.678-0.706,2.867-0.706c1.14,0,2.086,0.234,2.836,0.706
		C628.272,352.867,628.647,353.453,628.647,354.141z"/>
	<path fill="#00A8D7" d="M699.361,388.233c-2.171,2.849-5.408,4.27-9.699,4.27c-3.262,0-5.44-1.21-6.522-3.625
		c-0.727-1.684-1.399-5.712-2.021-12.09c-0.417-4.014-0.905-6.665-1.475-7.961c-0.929-2.199-2.716-3.301-5.357-3.301
		c-5.02,0-10.579,3.752-16.688,11.262c-2.484,3.104-4.966,6.185-7.455,9.246c-2.582,2.844-4.677,4.269-6.287,4.269
		c-3.619,0-5.742-2.333-6.363-6.984c-0.467-2.98-1.088-8.303-1.86-15.981c-0.106-1.641,0.721-2.452,2.481-2.452
		c1.55,0,2.434,0.755,2.64,2.261c0.05,3.366,0.412,8.491,1.089,15.394c0.255,1.767,0.489,2.915,0.697,3.43
		c0.203,0.514,0.569,0.78,1.09,0.78c0.671,0,2.532-1.858,5.587-5.567c1.706-2.158,3.416-4.314,5.118-6.469
		c3.417-4.098,6.396-7.156,8.93-9.187c3.829-3.012,7.503-4.529,11.022-4.529c4.35,0,7.453,1.317,9.313,3.948
		c1.553,2.2,2.616,5.992,3.187,11.382c0.261,2.893,0.513,5.78,0.779,8.669c0.461,2.37,1.342,3.563,2.634,3.563
		c1.969,0,3.855-0.479,5.666-1.426c0.831-0.557,1.635-0.844,2.405-0.844c0.932,0,1.4,0.345,1.4,1.04
		C699.672,387.587,699.569,387.888,699.361,388.233z"/>
	<path fill="#00A8D7" d="M747.104,402.142c0,3.882-1.322,6.642-3.963,8.281c-2.433,1.506-6.312,2.262-11.645,2.262
		c-7.965,0-13.455-0.346-16.457-1.033c-6.414-1.515-8.796-4.771-7.137-9.771c0.31-0.949,0.932-1.418,1.862-1.418
		c1.342,0,1.911,0.713,1.704,2.131c-0.102,0.474-0.154,0.907-0.154,1.297c0,1.984,1.318,3.338,3.958,4.067
		c2.643,0.734,8.05,1.106,16.224,1.106c4.193,0,7.039-0.413,8.541-1.23c1.811-0.992,2.716-2.891,2.716-5.691
		c0-2.807-0.854-6.534-2.558-11.191c-1.35-3.319-2.695-6.645-4.04-9.962c-3.521,2.802-7.84,5.134-12.962,6.981
		c-4.191,1.512-7.352,2.268-9.471,2.268c-3.261,0-5.927-0.582-7.996-1.745c-2.483-1.424-3.726-3.537-3.726-6.344
		c0-4.396,2.847-8.836,8.536-13.321c5.693-4.482,11.182-6.731,16.455-6.731c2.179,0,3.99,0.652,5.439,1.942
		c1.652,1.515,2.482,3.734,2.482,6.664c0,1.164-0.728,1.752-2.17,1.752c-1.452,0-2.179-0.588-2.179-1.752
		c0-2.798-1.19-4.198-3.573-4.198c-3.621,0-7.785,1.762-12.49,5.297c-4.869,3.713-7.301,7.163-7.301,10.348
		c0,3.021,2.171,4.533,6.521,4.533c1.913,0,4.971-0.841,9.161-2.523c5.122-2.071,9.206-4.553,12.265-7.444
		c-0.158-0.904-0.183-1.717-0.08-2.451c0.207-1.729,1.087-3.15,2.64-4.272c1.292-0.946,2.665-1.424,4.114-1.424
		c1.399,0,2.096,0.519,2.096,1.557c0,0.214-0.023,0.447-0.075,0.711c-0.778,2.37-1.97,4.438-3.573,6.206
		c1.242,3.451,2.483,6.899,3.725,10.353C746.064,393.514,747.104,398.432,747.104,402.142z"/>
</g>
<g>
	<path fill="#E00069" d="M597.295,185.317c-0.007-0.021-0.091-0.132-0.111-0.159C597.42,185.5,597.295,185.304,597.295,185.317z"/>
	<polygon fill="#E00069" points="599.864,188.356 599.784,188.343 600.251,188.685 	"/>
	<path fill="#E00069" d="M602.272,191.165c0.04-0.549-0.929-0.957-1.269-1.551l-0.026-0.135l-0.36-0.043
		C601.152,190.029,601.977,190.664,602.272,191.165z"/>
	<path fill="#E00069" d="M602.814,193.431c0.062-0.242,0.369,0.226-0.229-0.42c0.006,0.043,0.011,0.068,0.017,0.101
		C602.647,193.182,602.697,193.255,602.814,193.431z"/>
	<path fill="#E00069" d="M602.603,193.112C602.369,192.802,602.645,193.436,602.603,193.112L602.603,193.112z"/>
	<path fill="#E00069" d="M603.734,194.494l-0.432-0.281c-0.023,0.179,0.215,0.578,0.051,0.503
		C603.726,195.082,603.764,194.89,603.734,194.494z"/>
	<path fill="#E00069" d="M604.322,194.583l-0.225-0.149C604.086,194.509,604.118,194.581,604.322,194.583z"/>
	<path fill="#E00069" d="M603.641,194.11l0.457,0.323c0.021-0.125,0.141-0.263-0.199-0.161
		C604.041,194.191,603.863,194.219,603.641,194.11z"/>
	<path fill="#E00069" d="M603.503,193.794c-0.089-0.315-0.273-0.653,0.173-0.382C603.011,192.703,602.867,193.056,603.503,193.794z"
		/>
	<path fill="#E00069" d="M602.693,190.992l-0.182-0.361l-0.322-0.143C602.346,190.56,602.623,191.104,602.693,190.992z"/>
	<path fill="#E00069" d="M605.416,197.271c0.119-0.078,0.172-0.414,0.277-0.574l-0.343-0.179
		C605.4,196.74,605.553,197.096,605.416,197.271z"/>
	<path fill="#E00069" d="M605.693,196.696l0.536,0.26C605.929,196.546,605.79,196.56,605.693,196.696z"/>
	<polygon fill="#E00069" points="604.841,194.183 603.941,193.785 604.962,194.311 	"/>
	<polygon fill="#E00069" points="606.675,199.006 606.224,199.013 606.966,199.07 	"/>
	<path fill="#E00069" d="M607.537,200.131c-0.364,0.03-0.244,0.679-0.524,0.604c0.237,0.3,0.618,0.382,0.976,0.448
		C607.715,201.018,607.571,200.698,607.537,200.131z"/>
	<path fill="#E00069" d="M608.55,201.333c-0.149-0.073-0.352-0.108-0.562-0.151C608.138,201.272,608.31,201.331,608.55,201.333z"/>
	<path fill="#E00069" d="M606.778,197.752c-0.041,0.099-0.168,0.337-0.051,0.664l0.183-0.488L606.778,197.752z"/>
	<path fill="#E00069" d="M606.916,197.912l-0.006,0.016c0.143,0.193,0.239,0.328,0.28,0.387
		C607.162,198.266,607.077,198.145,606.916,197.912z"/>
	<path fill="#E00069" d="M606.743,197.706l0.035,0.046C606.792,197.703,606.799,197.683,606.743,197.706z"/>
	<path fill="#E00069" d="M605.573,195.531c0.366,0.102,1.008,0.435,0.792-0.294C606.014,195.253,606.133,195.673,605.573,195.531z"
		/>
	<path fill="#E00069" d="M606.959,197.111l-0.318-0.521c-0.071,0.086-0.12,0.285-0.309,0.242L606.959,197.111z"/>
	<polygon fill="#E00069" points="607.25,197.232 606.959,197.111 607.077,197.305 	"/>
	<path fill="#E00069" d="M608.342,200.134c0.303,0.064,0.478,0.284,0.684,0.521c-0.115-0.353-0.282-0.681-0.476-0.958
		C608.41,199.769,608.12,199.841,608.342,200.134z"/>
	<path fill="#E00069" d="M607.719,198.988l0.055,0.025C607.78,198.958,607.773,198.927,607.719,198.988z"/>
	<polygon fill="#E00069" points="610.823,203.225 610.873,203.111 610.792,203.172 	"/>
	<path fill="#E00069" d="M608.585,199.585c-0.078-0.277-0.257-0.317-0.447-0.333c0.146,0.125,0.283,0.269,0.412,0.445
		C608.614,199.667,608.649,199.637,608.585,199.585z"/>
	<path fill="#E00069" d="M609.203,201.897c0.018-0.19,0-0.384-0.023-0.577C609.13,201.543,609.08,201.956,609.203,201.897z"/>
	<path fill="#E00069" d="M607.729,199.173l-0.035-0.014C607.669,199.298,607.7,199.256,607.729,199.173z"/>
	<path fill="#E00069" d="M607.729,199.173c0.129,0.064,0.271,0.067,0.408,0.079c-0.118-0.102-0.234-0.19-0.364-0.239
		C607.771,199.062,607.754,199.124,607.729,199.173z"/>
	<path fill="#E00069" d="M614.275,201.356c-0.458,0.351-1.272,0.183-1.23-0.654c-0.681-0.152-1.715,1.317-2.172,2.409
		c0.188-0.147,0.349-0.295,0.946-0.046c0.105-0.374-0.29-1.508,0.388-1.453c0.7,0.413,0.266,0.626,0.278,1.125
		c0.308-0.719,1.395,0.077,2.076-0.769l-0.732-0.264C613.935,201.584,614.296,201.598,614.275,201.356z"/>
	<path fill="#E00069" d="M610.256,202.165l-0.188-0.153c0.094,0.288,0.059,0.589-0.049,1.178c0.424,0.153,0.623,0.081,0.773-0.018
		l-0.64-1.021L610.256,202.165z"/>
	<path fill="#E00069" d="M609.443,201.123c0.498-0.218,1.028,0.083,1.252-0.614c-0.469-0.537-0.643-0.082-1.064-0.264
		c0.779,0.838-0.404-0.064-0.149,0.826c-0.196-0.123-0.333-0.272-0.456-0.416c0.075,0.216,0.123,0.438,0.154,0.665l0.012-0.046
		l-0.009-0.002l0.013-0.004c0.02-0.089,0.04-0.13,0.046-0.056l0.019,0.009c0.063-0.043,0.117-0.074,0.181-0.097
		c0.105,0.35-0.078,0.14-0.181,0.097l-0.064,0.046l-0.004,0.006l0.876,0.738C609.982,201.76,609.796,201.526,609.443,201.123z"/>
	<path fill="#E00069" d="M607.414,195.055c0,0.052-0.021,0.072-0.042,0.095C607.464,195.166,607.511,195.16,607.414,195.055z"/>
	<path fill="#E00069" d="M607.575,195.567c-0.101-0.018-0.268,0.051-0.431-0.172c-0.074-0.258,0.143-0.142,0.228-0.245
		c-0.199-0.035-0.614-0.202-0.39,0.306l0.095,0.022c0.23,0.427,0.245,1.246,0.148,1.231
		C607.414,196.333,607.53,196.05,607.575,195.567z"/>
	<path fill="#E00069" d="M608.809,198.124l0.772,0.586l0.004-0.681l-0.17,0.199C609.145,197.734,608.992,198.042,608.809,198.124z"
		/>
	<polygon fill="#E00069" points="610.666,203.515 610.13,203.838 611.107,203.686 	"/>
	<polygon fill="#E00069" points="611.436,204.479 610.984,204.827 611.428,204.864 	"/>
	<path fill="#E00069" d="M656.533,259.849l0.362,0.179C656.768,259.928,656.65,259.877,656.533,259.849z"/>
	<path fill="#E00069" d="M655.915,257.816l-0.483,0.13C655.721,257.941,655.924,257.906,655.915,257.816z"/>
	<path fill="#E00069" d="M627.957,229.579c-0.54,0.827-1.479,1.954-0.607,1.334l0.813-0.666
		C627.869,230.105,627.86,229.857,627.957,229.579z"/>
	<path fill="#E00069" d="M643.654,244.521l0.254-0.259c-0.397,0.084-0.759,0.16-1.099,0.231
		C643.073,244.504,643.358,244.511,643.654,244.521z"/>
	<path fill="#E00069" d="M647.976,242.716l-0.388,0.812C647.753,243.306,647.885,243.041,647.976,242.716z"/>
	<path fill="#E00069" d="M660.979,270.587l1.09,0.029C661.941,270.092,661.489,270.478,660.979,270.587z"/>
	<path fill="#E00069" d="M618.898,214.615c-0.068,0.5-0.033,0.821,0.063,1.056C619.129,215.01,619.511,214.274,618.898,214.615z"/>
	<path fill="#E00069" d="M645.288,263.203c0.249,0.087,0.48,0.077,0.71-0.015C645.76,263.092,645.531,263.074,645.288,263.203z"/>
	<path fill="#E00069" d="M619.495,216.523c0.024-0.117,0.039-0.18,0.063-0.279c-0.249-0.129-0.473-0.276-0.596-0.573
		C618.839,216.159,618.839,216.602,619.495,216.523z"/>
	<path fill="#E00069" d="M664.372,312.284c-0.018,0.035-0.029,0.055-0.055,0.097C664.378,312.387,664.384,312.346,664.372,312.284z"
		/>
	<path fill="#E00069" d="M661.651,324.26c-0.026-0.17-0.044-0.31-0.071-0.483C661.601,323.924,661.607,323.938,661.651,324.26z"/>
	<path fill="#E00069" d="M614.09,208.728C613.9,208.546,614.002,208.744,614.09,208.728L614.09,208.728z"/>
	<path fill="#E00069" d="M615.432,205.881c0.094-0.008,0.197-0.041,0.328-0.144C615.611,205.832,615.508,205.876,615.432,205.881z"
		/>
	<path fill="#E00069" d="M625.361,215.331l0.011,0.02C625.463,215.181,625.449,215.213,625.361,215.331z"/>
	<path fill="#E00069" d="M614.104,208.195c-0.006,0.137,0.003,0.278,0.033,0.41C614.149,208.526,614.144,208.396,614.104,208.195z"
		/>
	<path fill="#E00069" d="M613.88,208.46c-0.036-0.1-0.057-0.166-0.082-0.232C613.691,208.28,613.65,208.35,613.88,208.46z"/>
	<path fill="#E00069" d="M614.328,208.997c-0.1-0.111-0.147-0.249-0.19-0.392c-0.006,0.074-0.024,0.117-0.048,0.123
		C614.138,208.787,614.21,208.866,614.328,208.997z"/>
	<path fill="#E00069" d="M661.587,290.371l-0.065,0.071C661.895,290.648,661.823,290.54,661.587,290.371z"/>
	<polygon fill="#E00069" points="640.941,229.642 640.882,229.642 640.871,229.696 	"/>
	<path fill="#E00069" d="M642.186,230.049c-1.394,0.335-1.382,0.056-1.314-0.354l-2.497,1.859L642.186,230.049z"/>
	<path fill="#E00069" d="M658.438,264.563l0.7-0.978c1.77,0.28,1.43,1.053,2.524-0.023c-3.225,1.005-1.156-2.495-4.4-1.441
		l0.534-0.678c0.009,0.135,0.208,0.087,0.214,0.222c1.266-1.406-2.538,0.217-2.447-1.025c0.117-0.464,0.498-0.906,0.971-0.791
		l-1.087-0.54c-0.021-0.267,0.559-0.419,0.585-0.152l-0.697-1.183l0.098-0.028c-0.569,0.015-1.501-0.092-1.904-0.16
		c0.354-0.504,0.397,0.026,0.772-0.214l-1.033-0.392c0.744-0.621,1.761-0.359,1.813,0.177c2.997-1.927-0.987-0.276,0.341-2.43
		l0.682,0.492c1.682-1.167,0.783-1.411,1.624-2.632c-0.525,0.434-2.268,2.668-3.394,2.241c0.158-0.311,0.152-0.635-0.673-0.771
		c1.15-0.479,0.702-0.758,0.424-1.224l1.547-0.604c-0.671-0.354-1.43,0.015-2.255-0.008c-0.108-0.656,1.022-1.284,1.959-1.854
		c-0.169-1.063-1.616,1.473-2.385,0.466c0.238-1.042-0.627-1.333-1.944-1.864c0.277-0.785,0.97-0.321,1.317-0.713l-1.426,0.056
		c-0.023-0.132,0.366-0.262,0.56-0.327c-0.648-0.199-1.529,0.651-2.222,0.199c-1.743,0.596,1.85-2.443-0.393-2.361
		c0.343-0.398,0.967-0.34,1.527-0.676c-1.726-0.509-1.319-0.517-3.375-0.609l0.594-1.21c-0.838,1.089-2.528,1.045-3.934,0.994
		c-0.439,0.456-0.827,0.848-0.997,1.065l-1.294-0.542c0.184-0.232,0.743-0.393,1.446-0.551l-0.447,0.007
		c0.371-0.611,1.317-0.866,2.279-1.037c-0.235,0.257-0.489,0.529-0.733,0.798c1.022-0.217,2.145-0.489,2.991-0.967
		c-0.205,0.023-0.418-0.025-0.568-0.117c0.276-0.059,0.519-0.127,0.648-0.229c0.144-0.112-0.243-0.048-0.706-0.018l1.543-1.043
		l-0.688,0.275l0.35-1.785c-2.151-0.065-4.987,0.416-6.398-0.628c1.374-0.284,1.979-0.955,3.393-1.685
		c-1.281,1.178,1.238,0.768,1.335,1.672c-0.052-0.472,0.671-0.734,0.961-0.761l-2.08-0.609c1.167-0.579,0.712-0.737,0.996-1.338
		c-2.133,1.473-2.05-0.174-3.026-0.333c0.732-0.445,1.577-0.737,1.756,0.019c1.291-1.647-3.156,0.509-2.096-0.981
		c0.1,0.15,0.033,0.297,0.446,0.153c-0.87-0.006-0.833-1.204-0.065-1.354l0.103,0.149c-0.321-1.205-1.755-3.237-3.737-2.278
		c0.233-0.147,2.3-1.163,2.713-1.32l-7.289,1.844c1.663-0.771,4.959-3.596,6.395-3.287c0.06-0.371,0.115-0.824-0.764-1.002
		c-0.112,0.299-1.973,1.755-2.259,1.619c1.323-1.651,0.646-0.98,1.597-2.624c-0.159,0.446-2.745,1.644-2.915,1.21
		c0.397-0.16,2.337-1.483,2.678-1.496l-2.966,0.487c0.574-0.023,1.999-1.187,2.502-1.809c-0.387,0.381-0.523-0.858-0.926-0.969
		l-0.254,0.744c-0.391-1.304-3.918,0.971-4.478-0.174c0.546-0.17,3.062-1.529,2.975-2.259c-1.324,0.496-6.194,2.481-7.588,2.109
		l0.523-0.608l-1.154-0.242c1.898-0.667,6.232-1.76,8.124-1.984c0.234-0.742,0.683-0.615,0.203-1.181
		c0.453-0.612,1.143-0.276,1.307-0.125l-0.616-1.661c-1.25,0.932-2.05-0.2-3.07,0.577l2.396,0.625
		c-1.271,0.93-4.285,1.585-4.696,0.435c0.337-0.599,2.382-1.356,2.792-1.667c-0.521,0.162-1.487-0.366-1.266-0.652l0.99-0.064
		c0.038-0.852-2.338,0.294-1.673-1.156c-0.091-0.274,1.035-1.754,0.287-1.282c-1.084,1.333-5.358,4.449-6.564,4.95
		c0.046-0.142,0.498-2.09,0.973-2.82c0.782-1.122,2.947-1.292,3.626-2.254c-0.336,0.222-0.896,0.313-1.087,0.326
		c0.091-0.428,1.075-0.63,0.522-1.017c-1.251,0.785-0.707-1.071-1.188,0.5c-0.72-0.235-0.17-0.69-0.673-1.218
		c-0.61,0.735-2.945,1.378-3.616,1.13c0.311-0.189,0.604-0.582,0.736-0.76c-0.65-1.074-0.56-1.989-1.266-2.92
		c0.192-0.287,0.151-0.973,0.758-1.141c-0.295,0.016-0.75,0.173-0.999-0.091c0.458-1.256,0.646,0.519,1.4-0.751
		c-0.642,0.444-1.435-0.067-2.121-0.177c-0.814,0.855,0.551,1.078,1.255,1.18c-1.307,1.029-3.203,1.386-4.45,0.853
		c-0.85-0.539,0.559-0.985,0.29-0.981c-0.833-1.645-3.003,0.487-3.053-1.392c0.366-1.073,1.433-1.234,1.883-1.778
		c0.797,0.358,0.319,1.296,0.694,1.679l-0.07-0.789c0.404-0.013,0.964,0.208,0.911,0.62c0.367-0.948-1.892-2.41-2.253-3.939
		c-0.404,0.013-0.922-0.108-1.058,0.28l0.393,0.248c-0.296,0.782-1.306,0.021-1.195,0.667c-0.768-0.122-1.758-0.132-1.971-1.04
		l0.627-0.761c-0.199,0.198-0.091,0.801,0.284,0.786c-0.534,0.011,0.164-1.842-1.018-1.305l-0.131,0.889
		c-0.739-0.135-1.898-0.073-2.106-0.861c-0.479,0.87,0.178,0.063-0.314,1.198c0.732-1.251,1.035,1.566,1.688,0.027
		c-0.647,1.277,0.147,1.096-0.305,2.404c0.237-0.232,0.328-0.611,0.563-0.008c0.091-0.041,0.223-0.067,0.301-0.082l0.006,0.049
		l0.009-0.053c0.057-0.01,0.063-0.016,0.004-0.017c0.021-0.215,0.084-0.422,0.195-0.581c0.753-0.253,1.337,0.535,1.853,0.529
		c0.1,0.393-0.396,0.134-0.554,0.527l0.772-0.006c-0.551,0.534-0.41,1.605-1.259,1.207l0.422,0.645
		c-0.074,0.65,0.141,1.271,0.633,1.36c0.072,0.405,1.239,0.159,0.553,0.313l1.063,0.675l-0.151,0.144
		c0.526,1.083,2.446,1.173,1.913,3.305c0.389,0.197,0.846,0.37,0.996,1.089l-0.561,0.588c0.498,0.261,0.17,1.784,0.962,1.463
		c-1.477,1.78,0.914,2.369,1.078,3.354l0.923-0.618c0.28,0.554,0.858,0.859,1.657,1.234l0.794-0.616
		c1.04,0.079,0.405,1.795,0.97,2.668c-0.36,0.161-0.404-0.129-0.304-0.428c-1.322,2.399,2.727,1.338,1.866,3.276
		c0.465,0.033,0.459,0.283,0.333,0.598c-0.018-0.021-0.043-0.03-0.084-0.03c0.006,0.032,0.025,0.072,0.046,0.108
		c-0.085,0.209-0.19,0.448-0.277,0.647c0.16-0.245,0.284-0.458,0.315-0.595c0.126,0.174,0.401,0.389,0.791,0.523l-0.901,0.741
		c0.026,0.016,0.038,0.022,0.067,0.045c-0.203,0.504,0.585-0.075,1.23-0.687c0.245,0.039,0.51,0.044,0.809-0.005
		c-1.447,1.228,0.97,0.394-0.548,1.768c0.937-0.33,1.449,1.008,3.315,0.066c-0.225,0.153-0.284,0.303-0.39,0.161
		c-0.014,0.435-0.031,0.87,0.647,0.842l-1.212,0.913l2.155-0.374c-0.538,0.889-0.904,1.335-2.152,1.528
		c2.139,0.064,1.06,0.449,3.125,0.378l-0.887,0.461c0.229,0.273,1.649,0.101,1.028,0.706c-1.296,1.639,1.547,3.598,0.891,6.23
		c2.473-1.755-0.759,1.456,1.333,0.438c-0.575,0.434-0.803,0.867-1.503,0.869c1.089,0.58-0.303,1.87,1.772,1.595
		c-0.587,0.43-1.034,0.284-1.362,0.568c0.172,0.001,0.702,0.005,0.369,0.29c-0.329,0.285-0.599,0.141-0.956,0.141
		c0.58,0.855,2.602-0.037,4.488-0.893c-0.633,0.91-0.389,1.079,1.018,0.821c-0.525,0.465-1.018,1.048-1.538,0.58
		c0.108,0.36,0.117,2.423,1.603,1.753c-0.334,0.287,0.097,0.524,0.311,0.532c0.239,0.795,0.134,0.924,0.601,1.6l0.158-0.319
		c1.951-0.548,0.68,0.431,1.163,0.93l-0.197,0.068c-0.712,1.966,0.899,0.313-0.011,2.337l1.107-0.577
		c2.516-0.949-0.912,1.838,0.374,2.208l0.527-0.561c1.035,0.076-2.814,2.619-2.93,3.161c-0.172,0.18-0.41,0-0.63-0.063
		c-0.951,1.706,1.565-0.483,2.295,0.2c-0.744,0.483-2.153,0.654-2.046,1.268c-0.53,0.529,3.376,0.537,2.087,1.947
		c0.559-0.415,1.119-0.835,1.739-0.62c0.448,0.531-1.739,2.543,0.434,2.344c-0.144,0.141-0.292,0.231-0.45,0.293
		c0.682,0.271,1.415,1.192,2.584,1.089c-3.769,1.838,3.002,2.234-0.609,3.49l0.749,1.358l-0.381,0.086
		c0.12,0.984,1.107,1.022,2.084,1.069c-0.173,0.294-0.56,0.244-0.748,0.286c-0.29,1.595-0.076,1.661,2.037,2.272l-1.105,0.471
		c0.757,0.115-1.136,2.489,0.625,3.431c-0.133,0.022-0.357,0.058-0.552-0.002c1.772,1.152-1.804,4.367,2.338,3.872l1.249,0.757
		c-0.029-1.396,1.742-0.236,2.256-0.946c0.348,0.474-0.851,1.654-1.208,1.061l0.174-0.15c-2.086,0.277-0.305,1.819-1.668,2.113
		c0.779,2.553,0.432,5.278,1.073,7.672l1.344-0.557l0.105,0.864c-0.272,0.288-1.011,0.51-1.102-0.104
		c-0.709,0.468,0.903,0.882,1.199,0.847c-0.281,1.288-1.709-0.16-1.658,0.21l0.223,0.469l0.134-0.139
		c0.656,0.292,1.249,0.221,1.346,0.961c-0.159,0.509-0.766,0.382-0.774,0.572c-0.096,0.015-0.123,0.085,0.029,0.282l0.152,1.081
		l0.932-0.604c0.615,0.391,0.167,1.021,1.219,0.327c-1.631,1.03,0.311,4.109-0.151,4.646c0.799,0.576,0.885,1.249,0.957,2.082
		c0.149-0.228,1.122-0.479,1.108,0.254c-2.058-0.007-0.657,1.416-1.914,2.149c0.806-0.615,0.639,1.985,1.721,1.048
		c-0.042,0.611-0.677,0.109-1.012,0.604c0.977,1.342,0.174,3.145,0.738,4.867c0.19,0.016,0.442-0.304,0.786,0.053l-0.771,0.992
		c0.162,0.339,1.087,0.252,0.586,0.926c0.126-0.099,0.328-0.246,0.42-0.017c-0.117,1.752,0.233,3.504,0.551,5.288
		c0.354,1.78,0.321,3.58,0.366,5.35c0.029-0.477,0.096-0.155,0.151,0.21c-0.011-0.239,0.132,0.01,0.197-0.036l-0.03,1.485
		c0.138,0.275,0.174,1.607,0.226,1.771l-0.031-0.479c0.055,0.633,0.158-0.873,0.351-0.771c-0.126-0.702,0.625-1.842,0.381-3.012
		c0.106-0.255,0.094,0.224,0.193,0.081c-0.107-0.294-0.126-0.651,0.026-1.308l0.041,0.077c0.165-1.857,0.396-2.651,0.841-4.757
		l-0.378,0.167c0.088-0.452,0.208-0.55,0.325-0.768c-0.536-0.494-0.137,1.267-0.702,0.816c0.8-0.622,0.164-3.168,1.148-3.627
		c0.037-0.694-0.525,0.236-0.501-0.461l0.295-0.199l-0.372-0.153c0.064-0.456,0.454-0.712,0.71-0.747
		c-0.033,0.113,0.058,0.31,0.072,0.429c0.396-0.616-0.029-1.667,0.098-1.882l-0.227,0.687c-0.261-1.875,0.399-4.27-0.527-6.014
		l-0.299,0.174c-0.65-1.332,0.291-1.159-0.056-2.662l0.083,0.047c-0.346-0.269-0.536-0.656-0.527-1.08
		c0.418,0.336,0.744-0.832,1.21-0.381c-0.751-1.433-0.558-0.687-1.946-1.5l0.574-0.313c-0.559-0.265-0.841-0.253-1.109-0.981
		c0.605,0.542,0.87-0.624,1.644-0.026c1.21-1.817-1.653-2.157,0.321-3.225c-1.881-0.438-0.838,1.547-1.266,1.198
		c-0.524,0.432-1.399-0.391-1.3-0.911c-0.039-0.508,2.199-1.251,2.036-2.546c0.006,0.129,0.148,0.115,0.151,0.244
		c0.435-0.571-0.75-0.831-0.029-1.568c-1.195-0.117-0.018-0.789-1.517-0.601l0.488,1.113c-0.451-0.602-2.299-0.886-1.607-2.139
		c0.321,0.022,0.77,0.27,1.02,0.453c0.401-0.41-0.367-0.562,0.032-0.984c1.555-0.209,0.516,1.371,1.733,1.877
		c0.592-0.472-1.228-1.163,0.435-1.113c-2.125-0.119,0.149-1.342-1.629-1.884l0.94-0.133c-0.165-0.108-0.653-0.302-0.674-0.563
		l1.288,0.212c-1.151-0.491,0.7-1.564,0.033-2.128c0.245,1.424-1.099,0.567-1.693,1.314c-1.589-1.456,2.335-1.542,1.576-3.429
		c0.179,0.24-0.426,1.138-0.943,0.823c0.137-0.42,0.43-1,0.91-1.353c-0.412-1.261-0.981,0.437-1.682,0.023
		c1.135-0.725-0.597-0.521-1.098-0.99l1.019-0.253c0.401-1.639-2.203,0.133-1.657-1.382l1.534,0.203l-0.492-0.602l1.205-0.154
		c-1.017-0.537-0.806-0.833-0.651-1.65c-0.696,0.361-1.927,0.401-2.126-0.226c0.518-0.606,1.068-0.023,0.69-0.896
		c0.719,0.026,1.598,0.035,0.725,0.692c0.351-0.049,0.706,0.03,1.057-0.018c0.612-0.67-0.105-1.249-0.198-1.577
		c-0.012,0.137-0.032,0.308-0.162,0.427l-1.811-0.921c0.35-0.32,0.715-0.246,1.07-0.17c-0.177-0.238-0.715-0.285-0.909-0.654
		c0.9-0.145,1.805-0.427,2.348,0.028l-1.274-1.004c0.363-0.193,0.901-0.963,1.268-0.89c0.367-0.873-2.142-1.236-1.679-2.378
		c-0.182,0.004-0.377-0.043-0.554-0.204c-0.023-0.936,0.912-2.081-0.603-2.724l1.479-1.123c-0.63-0.681-1.813,1.459-2.859,0.333
		c-0.837-0.761,1.286-0.815,1.638-1.298c-0.978-0.201-2.946-0.425-1.884-1.753C658.396,264.028,658.223,264.338,658.438,264.563z
		 M654.317,255.056c0.319,0.085,1.226,0.156,0.604,0.563C653.509,255.937,654.071,255.524,654.317,255.056z M645.109,242.133
		c0.437-0.058,0.358,0.234,0.056,0.672C644.984,242.688,644.931,242.481,645.109,242.133z M616.279,210.606l0.043-0.012
		C616.316,211.148,616.326,210.945,616.279,210.606z M616.03,209.66c-0.141,0.006-0.223,0.085-0.294,0.191
		c0.199-0.085,0.332,0.063,0.417,0.284C616.291,209.94,616.338,209.752,616.03,209.66z M656.061,294.278l0.188-0.209
		C656.591,294.402,656.336,294.336,656.061,294.278z"/>
	<path fill="#E00069" d="M647.474,242.92c-0.169,0.141-0.368,0.259-0.574,0.375C647.128,243.271,647.348,243.167,647.474,242.92z"/>
	<polygon fill="#E00069" points="660.775,270.583 660.771,270.618 660.979,270.587 	"/>
	<path fill="#E00069" d="M630.868,215.77c0,0.237-0.082,0.43-0.202,0.6C630.881,216.228,631.003,216.035,630.868,215.77z"/>
	<path fill="#E00069" d="M612.266,206.748l0.474,0.335c-0.188-0.198-0.12-0.388-0.111-0.578
		C612.502,206.631,612.374,206.885,612.266,206.748z"/>
	<path fill="#E00069" d="M612.397,199.952c-0.111-0.01-0.124-0.127-0.237-0.135l-0.197,0.218
		C612.207,200.292,612.552,200.315,612.397,199.952z"/>
	<path fill="#E00069" d="M613.798,204.688c0.438-0.448,0.05-0.585-0.281-0.825l0.043,0.056
		C612.856,204.394,613.325,204.546,613.798,204.688z"/>
	<path fill="#E00069" d="M613.442,203.805c-0.096-0.078-0.188-0.165-0.243-0.279C612.924,203.714,613.238,203.691,613.442,203.805z"
		/>
	<path fill="#E00069" d="M615.013,209.061c0.021-0.267-0.737,0.473-0.583,0.205C613.636,209.664,615.969,209.592,615.013,209.061z"
		/>
	<polygon fill="#E00069" points="615.112,203.084 614.638,203.702 615.244,203.462 	"/>
	<path fill="#E00069" d="M616.771,205.86l-0.251-0.633c-0.097,0.097-0.208,0.087-0.323,0.051
		C616.438,205.595,616.598,206.03,616.771,205.86z"/>
	<path fill="#E00069" d="M616.196,205.278c-0.119-0.167-0.261-0.303-0.436-0.305C615.839,205.054,616.016,205.216,616.196,205.278z"
		/>
	<polygon fill="#E00069" points="615.871,203.589 615.874,203.838 616.135,204.218 	"/>
	<path fill="#E00069" d="M621.043,211.286l0.632,0.395c0.299-0.148,0.34-0.427,0.079-0.556
		C621.477,211.132,621.227,211,621.043,211.286z"/>
	<path fill="#E00069" d="M621.704,208.004c-0.018,0.259-0.169,0.4-0.327,0.669l0.894-0.705L621.704,208.004z"/>
	<path fill="#E00069" d="M623.236,209.426c0.293-0.146,1.392,0.212,0.756-0.437C623.691,209.135,623.029,208.752,623.236,209.426z"
		/>
	<polygon fill="#E00069" points="628.536,218.808 628.413,218.674 626.612,219.997 	"/>
	<path fill="#E00069" d="M638.715,223.408c-0.007-1.021-1.378,0.644-1.211-0.389c-0.592,0.144-0.138,0.844-0.673,0.943
		C637.63,224.06,637.498,224.471,638.715,223.408z"/>
	<path fill="#E00069" d="M636.831,223.962c-0.126-0.018-0.27-0.025-0.451-0.018C636.587,223.985,636.728,223.98,636.831,223.962z"/>
	<polygon fill="#E00069" points="661.798,326.224 661.861,326.762 661.841,326.417 	"/>
	<path fill="#E00069" d="M661.965,327.261l-0.013,0.132l0.036,0.326C661.981,327.616,661.981,327.668,661.965,327.261z"/>
	<path fill="#E00069" d="M656.84,252.348l-0.387,0.117c-0.372,0.246-0.352,0.379-0.311,0.648L656.84,252.348z"/>
	<polygon fill="#E00069" points="658.268,259.954 658.259,259.818 656.937,260.564 	"/>
	<path fill="#E00069" d="M661.976,265.424c-0.018-0.269-0.415-0.463-0.436-0.731C661.958,265.155,660.289,266.058,661.976,265.424z"
		/>
</g>
<g>
	<path fill="#AFB700" d="M611.403,126.404c-0.026-0.034-0.138-0.177-0.166-0.209C611.57,126.645,611.398,126.388,611.403,126.404z"
		/>
	<polygon fill="#AFB700" points="615.02,130.442 614.917,130.411 615.547,130.899 	"/>
	<path fill="#AFB700" d="M618.418,134.183c-0.05-0.637-1.283-1.297-1.803-2.057l-0.049-0.162l-0.443-0.119
		C616.873,132.641,617.969,133.538,618.418,134.183z"/>
	<path fill="#AFB700" d="M619.486,136.946c0.029-0.271,0.478,0.336-0.352-0.534c0.021,0.054,0.024,0.083,0.042,0.121
		C619.243,136.623,619.322,136.729,619.486,136.946z"/>
	<path fill="#AFB700" d="M619.177,136.533C618.833,136.124,619.281,136.923,619.177,136.533L619.177,136.533z"/>
	<path fill="#AFB700" d="M620.788,138.372l-0.569-0.412c0.006,0.205,0.36,0.723,0.159,0.605
		C620.884,139.062,620.896,138.843,620.788,138.372z"/>
	<path fill="#AFB700" d="M621.502,138.581l-0.292-0.216C621.21,138.454,621.256,138.543,621.502,138.581z"/>
	<path fill="#AFB700" d="M620.601,137.9l0.609,0.465c0-0.144,0.117-0.282-0.27-0.224C621.099,138.067,620.884,138.069,620.601,137.9
		z"/>
	<path fill="#AFB700" d="M620.38,137.503c-0.167-0.387-0.453-0.82,0.127-0.418C619.583,136.126,619.479,136.517,620.38,137.503z"/>
	<path fill="#AFB700" d="M618.892,134.058l-0.29-0.46l-0.406-0.226C618.397,133.484,618.824,134.176,618.892,134.058z"/>
	<path fill="#AFB700" d="M623.299,141.974c0.134-0.072,0.134-0.46,0.23-0.63l-0.447-0.277
		C623.179,141.338,623.433,141.791,623.299,141.974z"/>
	<path fill="#AFB700" d="M623.529,141.344l0.68,0.401C623.778,141.205,623.617,141.195,623.529,141.344z"/>
	<polygon fill="#AFB700" points="622.042,138.205 620.896,137.572 622.212,138.379 	"/>
	<polygon fill="#AFB700" points="625.132,144.264 624.587,144.196 625.495,144.385 	"/>
	<path fill="#AFB700" d="M626.374,145.753c-0.427-0.032-0.17,0.768-0.51,0.629c0.335,0.403,0.804,0.573,1.23,0.718
		C626.737,146.854,626.51,146.438,626.374,145.753z"/>
	<path fill="#AFB700" d="M627.783,147.388c-0.189-0.118-0.428-0.197-0.688-0.287C627.289,147.234,627.505,147.34,627.783,147.388z"
		/>
	<path fill="#AFB700" d="M625.009,142.791c-0.028,0.112-0.135,0.376,0.068,0.781l0.126-0.547L625.009,142.791z"/>
	<path fill="#AFB700" d="M625.209,143.005l-0.006,0.019c0.204,0.251,0.351,0.429,0.412,0.506
		C625.565,143.468,625.442,143.31,625.209,143.005z"/>
	<path fill="#AFB700" d="M624.965,142.732l0.044,0.059C625.026,142.737,625.021,142.714,624.965,142.732z"/>
	<path fill="#AFB700" d="M623.169,139.938c0.454,0.185,1.275,0.694,0.889-0.209C623.644,139.685,623.861,140.206,623.169,139.938z"
		/>
	<path fill="#AFB700" d="M625.111,142.062l-0.478-0.678c-0.072,0.092-0.093,0.318-0.321,0.234L625.111,142.062z"/>
	<polygon fill="#AFB700" points="625.479,142.255 625.111,142.062 625.284,142.313 	"/>
	<path fill="#AFB700" d="M627.318,145.909c0.368,0.131,0.615,0.431,0.901,0.756c-0.202-0.448-0.454-0.872-0.731-1.238
		C627.335,145.484,627.008,145.518,627.318,145.909z"/>
	<path fill="#AFB700" d="M626.377,144.418l0.07,0.04C626.445,144.393,626.43,144.354,626.377,144.418z"/>
	<polygon fill="#AFB700" points="630.799,150.095 630.834,149.969 630.748,150.024 	"/>
	<path fill="#AFB700" d="M627.508,145.296c-0.144-0.349-0.356-0.431-0.585-0.486c0.192,0.179,0.383,0.378,0.565,0.617
		C627.559,145.397,627.594,145.371,627.508,145.296z"/>
	<path fill="#AFB700" d="M628.66,148.188c-0.016-0.227-0.068-0.46-0.136-0.698C628.508,147.751,628.519,148.233,628.66,148.188z"/>
	<path fill="#AFB700" d="M626.43,144.643l-0.053-0.025C626.374,144.779,626.403,144.734,626.43,144.643z"/>
	<path fill="#AFB700" d="M626.43,144.643c0.159,0.1,0.325,0.129,0.493,0.167c-0.162-0.142-0.311-0.271-0.476-0.352
		C626.454,144.515,626.445,144.584,626.43,144.643z"/>
	<path fill="#AFB700" d="M634.487,148.491c-0.47,0.338-1.454-0.019-1.551-1.015c-0.826-0.313-1.767,1.261-2.103,2.493
		c0.192-0.145,0.352-0.29,1.095,0.119c0.056-0.431-0.604-1.868,0.188-1.673c0.902,0.627,0.422,0.8,0.533,1.402
		c0.226-0.805,1.638,0.352,2.279-0.539l-0.902-0.455C634.132,148.705,634.552,148.784,634.487,148.491z"/>
	<path fill="#AFB700" d="M629.943,148.709l-0.247-0.218c0.161,0.363,0.173,0.721,0.156,1.409c0.518,0.264,0.744,0.218,0.896,0.125
		l-0.931-1.351L629.943,148.709z"/>
	<path fill="#AFB700" d="M628.795,147.3c0.55-0.166,1.225,0.294,1.358-0.499c-0.641-0.732-0.765-0.218-1.295-0.517
		c1.066,1.152-0.492-0.155-0.023,0.961c-0.254-0.182-0.444-0.385-0.615-0.582c0.121,0.272,0.229,0.546,0.305,0.825l0.009-0.052
		l-0.015-0.004l0.015-0.006c0.007-0.102,0.023-0.147,0.036-0.059l0.032,0.019c0.059-0.044,0.129-0.067,0.193-0.085
		c0.188,0.442-0.062,0.155-0.193,0.085l-0.068,0.04v0.01l1.163,1.054C629.548,148.173,629.283,147.852,628.795,147.3z"/>
	<path fill="#AFB700" d="M625.275,139.699c0.009,0.063-0.012,0.083-0.029,0.106C625.354,139.839,625.407,139.842,625.275,139.699z"
		/>
	<path fill="#AFB700" d="M625.565,140.336c-0.129-0.04-0.315,0.013-0.551-0.282c-0.141-0.315,0.144-0.14,0.231-0.248
		c-0.246-0.078-0.771-0.347-0.415,0.296l0.117,0.039c0.352,0.549,0.524,1.526,0.4,1.49
		C625.507,141.216,625.595,140.9,625.565,140.336z"/>
	<path fill="#AFB700" d="M627.514,143.582l1.005,0.849l-0.111-0.815l-0.166,0.204C627.833,143.175,627.711,143.518,627.514,143.582z
		"/>
	<polygon fill="#AFB700" points="630.666,150.416 630.099,150.704 631.212,150.706 	"/>
	<polygon fill="#AFB700" points="631.745,151.726 631.284,152.059 631.807,152.188 	"/>
	<path fill="#AFB700" d="M690.369,229.179l0.389,0.278C690.615,229.31,690.488,229.229,690.369,229.179z"/>
	<path fill="#AFB700" d="M689.488,226.435L689,226.55C689.301,226.575,689.508,226.554,689.488,226.435z"/>
	<path fill="#AFB700" d="M655.182,185.793c-0.46,0.957-1.314,2.225-0.448,1.594l0.786-0.708
		C655.171,186.45,655.118,186.13,655.182,185.793z"/>
	<path fill="#AFB700" d="M674.746,207.468l0.229-0.298c-0.411,0.051-0.795,0.099-1.146,0.142
		C674.114,207.361,674.421,207.415,674.746,207.468z"/>
	<path fill="#AFB700" d="M679.115,205.759l-0.296,0.989C678.969,206.486,679.068,206.163,679.115,205.759z"/>
	<path fill="#AFB700" d="M696.147,243.826l1.124,0.147C697.086,243.263,696.656,243.73,696.147,243.826z"/>
	<path fill="#AFB700" d="M642.279,165.456c0.012,0.603,0.109,1.009,0.261,1.314C642.611,165.985,642.915,165.148,642.279,165.456z"
		/>
	<path fill="#AFB700" d="M679.018,232.253c0.27,0.146,0.516,0.161,0.744,0.066C679.502,232.163,679.258,232.112,679.018,232.253z"/>
	<path fill="#AFB700" d="M643.302,167.925c0.01-0.136,0.018-0.216,0.021-0.337c-0.305-0.205-0.589-0.425-0.782-0.818
		C642.49,167.351,642.569,167.903,643.302,167.925z"/>
	<path fill="#AFB700" d="M702.281,300.213c-0.02,0.049-0.033,0.077-0.058,0.13C702.287,300.354,702.291,300.296,702.281,300.213z"/>
	<path fill="#AFB700" d="M699.628,316.553c-0.023-0.205-0.044-0.426-0.067-0.663C699.576,316.06,699.584,316.143,699.628,316.553z"
		/>
	<path fill="#AFB700" d="M635.633,157.36C635.377,157.105,635.535,157.367,635.633,157.36L635.633,157.36z"/>
	<path fill="#AFB700" d="M636.66,154.159c0.105,0.009,0.217-0.014,0.35-0.113C636.863,154.135,636.752,154.166,636.66,154.159z"/>
	<path fill="#AFB700" d="M649.754,167.512l0.02,0.026C649.85,167.345,649.833,167.381,649.754,167.512z"/>
	<path fill="#AFB700" d="M635.55,156.718c0.016,0.167,0.056,0.335,0.117,0.505C635.667,157.125,635.638,156.971,635.55,156.718z"/>
	<path fill="#AFB700" d="M635.343,156.996c-0.063-0.123-0.098-0.209-0.141-0.292C635.088,156.744,635.052,156.823,635.343,156.996z"
		/>
	<path fill="#AFB700" d="M635.961,157.733c-0.133-0.157-0.223-0.33-0.294-0.51c0.004,0.088-0.006,0.138-0.034,0.138
		C635.705,157.441,635.803,157.553,635.961,157.733z"/>
	<path fill="#AFB700" d="M698.444,270.348c-0.019,0.031-0.034,0.051-0.064,0.091C698.772,270.743,698.696,270.59,698.444,270.348z"
		/>
	<polygon fill="#AFB700" points="669.529,188.009 669.464,188 669.459,188.067 	"/>
	<path fill="#AFB700" d="M670.961,188.716c-1.476,0.207-1.505-0.145-1.502-0.649l-2.438,1.956L670.961,188.716z"/>
	<path fill="#AFB700" d="M692.883,235.597l0.619-1.211c1.871,0.561,1.603,1.538,2.617,0.245c-3.234,0.969-1.479-3.4-4.732-2.377
		l0.477-0.833c0.024,0.18,0.223,0.14,0.248,0.318c1.154-1.708-2.619-0.007-2.67-1.631c0.072-0.599,0.419-1.133,0.928-0.927
		l-1.195-0.837c-0.057-0.354,0.531-0.486,0.587-0.135l-0.856-1.634L689,226.55c-0.596-0.054-1.58-0.307-2.01-0.445
		c0.31-0.619,0.421,0.083,0.787-0.186l-1.125-0.642c0.701-0.723,1.802-0.253,1.916,0.459c2.906-2.163-1.048-0.494,0.068-3.144
		l0.779,0.725c1.622-1.32,0.639-1.74,1.364-3.225c-0.493,0.495-2.034,3.192-3.277,2.5c0.123-0.387,0.079-0.811-0.813-1.091
		c1.148-0.478,0.64-0.898,0.282-1.539l1.553-0.593c-0.757-0.545-1.51-0.158-2.38-0.296c-0.199-0.867,0.911-1.539,1.826-2.156
		c-0.319-1.401-1.512,1.708-2.461,0.3c0.114-1.326-0.836-1.813-2.306-2.684c0.192-0.979,0.986-0.286,1.303-0.745l-1.502-0.12
		c-0.041-0.177,0.352-0.292,0.556-0.351c-0.717-0.343-1.535,0.638-2.337-0.045c-1.77,0.537,1.646-2.916-0.721-3.118
		c0.313-0.468,0.976-0.308,1.526-0.665c-1.896-0.903-1.46-0.854-3.662-1.266l0.451-1.477c-0.732,1.283-2.562,0.99-4.073,0.721
		c-0.409,0.523-0.764,0.976-0.91,1.232l-1.48-0.886c0.161-0.277,0.741-0.401,1.475-0.502c-0.168-0.021-0.332-0.04-0.483-0.057
		c0.304-0.735,1.288-0.926,2.296-1.008c-0.216,0.295-0.444,0.609-0.667,0.923c1.071-0.128,2.232-0.32,3.072-0.819
		c-0.219,0-0.454-0.091-0.633-0.229c0.291-0.037,0.542-0.092,0.668-0.203c0.13-0.123-0.271-0.095-0.764-0.123l1.494-1.121
		l-0.695,0.255l0.112-2.239c-2.324-0.392-5.317-0.193-7-1.755c1.439-0.155,1.996-0.929,3.413-1.65
		c-1.206,1.317,1.445,1.167,1.688,2.339c-0.129-0.608,0.611-0.844,0.922-0.835l-2.335-1.084c1.173-0.57,0.656-0.839,0.874-1.563
		c-2.074,1.564-2.232-0.532-3.316-0.885c0.727-0.455,1.599-0.701,1.897,0.29c1.158-1.91-3.331,0.17-2.411-1.578
		c0.138,0.209,0.082,0.39,0.508,0.265c-0.941-0.14-1.076-1.667-0.272-1.742l0.132,0.208c-0.524-1.587-2.367-4.411-4.4-3.495
		c0.228-0.153,2.328-1.116,2.754-1.249l-7.7,1.187c1.694-0.714,4.854-3.762,6.48-3.145c0.007-0.458-0.005-1.021-1.007-1.381
		c-0.071,0.355-1.876,1.902-2.213,1.683c1.182-1.875,0.549-1.135,1.322-3.055c-0.105,0.536-2.752,1.632-3.009,1.06
		c0.412-0.136,2.328-1.494,2.706-1.452l-3.195,0.132c0.629,0.066,2.01-1.17,2.467-1.874c-0.36,0.42-0.718-1.163-1.182-1.367
		l-0.158,0.893c-0.645-1.702-4.163,0.58-4.971-0.958c0.571-0.125,3.137-1.412,2.917-2.341c-1.383,0.402-6.45,2.076-8.067,1.351
		l0.483-0.673l-1.319-0.51c1.995-0.501,6.624-1.124,8.679-1.096c0.144-0.888,0.662-0.653,0.04-1.441
		c0.399-0.691,1.223-0.155,1.427,0.064l-0.945-2.184c-1.237,0.958-2.301-0.598-3.306,0.201l2.743,1.188
		c-1.257,0.952-4.483,1.259-5.131-0.259c0.279-0.693,2.426-1.287,2.834-1.604c-0.545,0.113-1.711-0.713-1.521-1.025l1.104,0.083
		c-0.108-1.042-2.581-0.021-2.086-1.703c-0.151-0.354,0.854-1.995,0.092-1.537c-0.988,1.465-5.235,4.607-6.514,5.021
		c0.027-0.174,0.185-2.514,0.59-3.335c0.683-1.254,3.096-1.094,3.69-2.167c-0.343,0.216-0.952,0.237-1.171,0.216
		c0.031-0.509,1.104-0.594,0.418-1.163c-1.276,0.752-0.993-1.446-1.257,0.412c-0.855-0.415-0.311-0.88-0.976-1.617
		c-0.562,0.803-3.084,1.19-3.893,0.762c0.319-0.178,0.586-0.61,0.697-0.81c-0.92-1.44-0.981-2.554-1.948-3.827
		c0.17-0.32,0.005-1.169,0.665-1.269c-0.331-0.032-0.818,0.082-1.149-0.29c0.312-1.462,0.824,0.756,1.46-0.674
		c-0.65,0.433-1.638-0.34-2.438-0.598c-0.783,0.9,0.811,1.424,1.632,1.676c-1.31,1.031-3.405,1.127-4.926,0.239
		c-1.065-0.825,0.473-1.108,0.161-1.152c-1.227-2.188-3.356,0.042-3.765-2.261c0.214-1.235,1.43-1.241,1.843-1.821
		c0.99,0.575,0.612,1.63,1.119,2.156l-0.229-0.968c0.461,0.059,1.152,0.419,1.166,0.916c0.252-1.094-2.64-3.254-3.345-5.171
		c-0.458-0.056-1.082-0.293-1.17,0.148l0.493,0.37c-0.186,0.896-1.498-0.208-1.261,0.593c-0.91-0.285-2.06-0.48-2.483-1.618
		l0.594-0.804c-0.196,0.205,0.042,0.953,0.469,1.001c-0.615-0.086-0.146-2.193-1.424-1.764l0.016,1.051
		c-0.886-0.301-2.225-0.439-2.619-1.432c-0.391,0.963,0.223,0.111-0.138,1.392c0.615-1.378,1.494,2.086,1.971,0.348
		c-0.518,1.426,0.373,1.354,0.1,2.856c0.229-0.24,0.268-0.68,0.654,0.095c0.102-0.035,0.246-0.044,0.333-0.047l0.015,0.061v-0.061
		c0.063-0.004,0.071-0.01,0-0.023c-0.011-0.254,0.021-0.496,0.121-0.668c0.831-0.167,1.652,0.893,2.249,0.98
		c0.19,0.495-0.433,0.093-0.538,0.541l0.89,0.132c-0.538,0.547-0.161,1.873-1.225,1.237l0.609,0.859
		c0.039,0.778,0.407,1.574,0.993,1.772c0.167,0.508,1.469,0.414,0.704,0.481c0.032-0.024,1.345,1.035,1.345,1.035l-0.159,0.145
		c0.795,1.443,3.012,1.901,2.783,4.44c0.486,0.32,1.028,0.617,1.334,1.535l-0.528,0.628c0.613,0.418,0.514,2.246,1.357,1.991
		c-1.349,1.946,1.479,3.119,1.846,4.375l0.926-0.608c0.424,0.74,1.14,1.225,2.106,1.831l0.782-0.627
		c1.197,0.279,0.805,2.299,1.575,3.511c-0.378,0.139-0.477-0.236-0.413-0.593c-1.069,2.796,3.261,2.181,2.629,4.479
		c0.521,0.125,0.554,0.438,0.468,0.817c-0.02-0.03-0.05-0.047-0.09-0.051c0.002,0.04,0.032,0.09,0.064,0.142
		c-0.063,0.249-0.136,0.533-0.197,0.773c0.133-0.28,0.232-0.532,0.25-0.7c0.169,0.244,0.513,0.565,0.964,0.801l-0.876,0.786
		c0.031,0.029,0.049,0.039,0.085,0.072c-0.139,0.605,0.641,0.007,1.25-0.662c0.273,0.089,0.577,0.146,0.896,0.13
		c-1.4,1.311,1.138,0.667-0.308,2.152c0.981-0.264,1.781,1.529,3.684,0.64c-0.223,0.156-0.265,0.336-0.405,0.137
		c0.06,0.553,0.114,1.102,0.858,1.178l-1.18,0.961l2.314-0.119c-0.442,1.04-0.768,1.55-2.11,1.59c2.37,0.43,1.243,0.748,3.511,0.989
		l-0.897,0.445c0.3,0.379,1.826,0.396,1.237,1.072c-1.154,1.9,2.237,4.889,1.933,8.187c2.402-1.882-0.595,1.768,1.51,0.778
		c-0.555,0.473-0.732,0.999-1.485,0.891c1.273,0.922-0.033,2.383,2.168,2.345c-0.565,0.468-1.072,0.212-1.384,0.529
		c0.188,0.028,0.757,0.111,0.448,0.435c-0.315,0.318-0.63,0.089-1.005,0.036c0.76,1.206,2.793,0.348,4.697-0.486
		c-0.536,1.088-0.244,1.345,1.222,1.215c-0.484,0.528-0.927,1.214-1.562,0.528c0.182,0.478,0.503,3.171,1.983,2.522
		c-0.314,0.326,0.175,0.698,0.4,0.74c0.369,1.081,0.27,1.232,0.861,2.188l0.124-0.398c2.004-0.439,0.782,0.664,1.365,1.387
		l-0.199,0.06c-0.487,2.482,0.995,0.537,0.308,3.064l1.098-0.602c2.532-0.903-0.717,2.289,0.703,2.953l0.483-0.669
		c1.104,0.239-2.619,3.07-2.665,3.772c-0.159,0.216-0.435-0.056-0.672-0.167c-0.768,2.128,1.586-0.431,2.45,0.57
		c-0.71,0.544-2.181,0.58-1.981,1.403c-0.483,0.636,3.654,1.15,2.459,2.864c0.536-0.48,1.071-0.962,1.74-0.6
		c0.536,0.763-1.512,3.167,0.74,3.178c-0.135,0.17-0.281,0.271-0.434,0.332c0.747,0.451,1.623,1.765,2.825,1.771
		c-3.706,2.002,3.4,3.331-0.209,4.58l0.94,1.9l-0.389,0.073c0.243,1.333,1.279,1.491,2.299,1.658
		c-0.144,0.378-0.548,0.268-0.743,0.304c-0.135,2.11,0.088,2.23,2.325,3.273l-1.089,0.517c0.79,0.236-0.915,3.238,0.993,4.685
		c-0.133,0.019-0.358,0.043-0.563-0.059c1.936,1.725-1.413,5.736,2.793,5.446l1.342,1.138c-0.145-1.889,1.759-0.162,2.227-1.075
		c0.388,0.667-0.737,2.158-1.143,1.324l0.156-0.188c-2.101,0.19-0.156,2.435-1.531,2.717c0.996,3.528,0.885,7.198,1.719,10.506
		l1.32-0.663l0.165,1.188c-0.264,0.371-0.996,0.62-1.122-0.222c-0.691,0.587,0.964,1.267,1.258,1.236
		c-0.201,1.737-1.74-0.334-1.664,0.175l0.257,0.656l0.124-0.183c0.68,0.442,1.279,0.384,1.429,1.401
		c-0.132,0.683-0.755,0.473-0.749,0.73c-0.096,0.016-0.121,0.108,0.047,0.388l0.223,1.486l0.902-0.767
		c0.649,0.568,0.238,1.403,1.258,0.522c-1.59,1.302,0.578,5.618,0.131,6.326c0.826,0.827,0.943,1.75,1.054,2.895
		c0.135-0.305,1.108-0.606,1.122,0.396c-2.064-0.103-0.595,1.907-1.825,2.856c0.776-0.811,0.727,2.745,1.774,1.503
		c-0.017,0.835-0.676,0.125-0.99,0.786c1.059,1.872,0.27,4.319,0.879,6.702c0.194,0.021,0.441-0.403,0.798,0.095l-0.762,1.339
		c0.17,0.468,1.107,0.37,0.618,1.283c0.129-0.133,0.332-0.332,0.43-0.017c-0.052,2.396,0.306,4.812,0.645,7.258
		c0.389,2.446,0.342,4.909,0.371,7.336c0.037-0.655,0.104-0.216,0.154,0.289c-0.004-0.329,0.133,0.009,0.203-0.055l-0.055,2.037
		c0.129,0.374,0.142,2.196,0.189,2.416l-0.023-0.653c0.057,0.866,0.189-1.195,0.387-1.058c-0.123-0.97,0.656-2.531,0.402-4.126
		c0.105-0.348,0.09,0.301,0.191,0.115c-0.105-0.404-0.126-0.888,0.026-1.788l0.042,0.101c0.184-2.532,0.386-3.62,0.808-6.488
		l-0.369,0.227c0.073-0.617,0.204-0.751,0.315-1.044c-0.538-0.683-0.127,1.729-0.701,1.106c0.791-0.841,0.146-4.324,1.124-4.928
		c0.018-0.949-0.53,0.308-0.521-0.638l0.296-0.27l-0.383-0.214c0.059-0.622,0.441-0.96,0.708-1.002
		c-0.035,0.153,0.062,0.425,0.081,0.584c0.393-0.833-0.078-2.271,0.047-2.556l-0.216,0.927c-0.319-2.559,0.278-5.792-0.741-8.197
		l-0.295,0.222c-0.713-1.833,0.239-1.56-0.17-3.616l0.084,0.066c-0.357-0.378-0.564-0.913-0.571-1.488
		c0.429,0.479,0.708-1.093,1.195-0.458c-0.819-1.981-0.586-0.959-2.017-2.134l0.563-0.397c-0.579-0.386-0.854-0.386-1.171-1.389
		c0.642,0.769,0.841-0.796,1.653,0.052c1.113-2.394-1.799-3.012,0.127-4.341c-1.921-0.703-0.754,2.044-1.205,1.544
		c-0.504,0.557-1.436-0.607-1.363-1.31c-0.076-0.692,2.147-1.562,1.91-3.322c0.014,0.178,0.158,0.166,0.166,0.342
		c0.4-0.747-0.808-1.171-0.121-2.125c-1.217-0.233-0.061-1.061-1.571-0.907l0.562,1.539c-0.498-0.844-2.385-1.351-1.757-3.002
		c0.325,0.057,0.791,0.42,1.055,0.685c0.381-0.524-0.405-0.787-0.029-1.328c1.567-0.175,0.606,1.886,1.872,2.648
		c0.574-0.595-1.32-1.649,0.371-1.469c-2.156-0.305,0.065-1.797-1.785-2.646l0.947-0.113c-0.18-0.157-0.69-0.454-0.734-0.801
		l1.324,0.372c-1.207-0.744,0.595-2.045-0.129-2.851c0.355,1.928-1.072,0.678-1.615,1.64c-1.734-2.081,2.246-1.902,1.33-4.481
		c0.197,0.333-0.344,1.491-0.9,1.028c0.107-0.55,0.368-1.308,0.828-1.74c-0.518-1.724-0.964,0.508-1.708-0.103
		c1.097-0.885-0.649-0.75-1.194-1.421l1.018-0.25c0.279-2.167-2.238-0.008-1.803-1.997l1.584,0.402l-0.549-0.848l1.214-0.102
		c-1.084-0.804-0.873-1.188-0.797-2.263c-0.681,0.422-1.94,0.367-2.204-0.491c0.476-0.762,1.088,0.065,0.621-1.129
		c0.739,0.099,1.643,0.186,0.804,0.988c0.362-0.037,0.733,0.101,1.09,0.067c0.56-0.836-0.229-1.671-0.356-2.119
		c0,0.183-0.006,0.407-0.13,0.556l-1.945-1.394c0.329-0.393,0.716-0.261,1.089-0.126c-0.209-0.334-0.771-0.448-0.998-0.956
		c0.911-0.108,1.811-0.398,2.411,0.254l-1.405-1.452c0.352-0.225,0.837-1.191,1.218-1.06c0.294-1.123-2.314-1.847-1.946-3.322
		c-0.195-0.012-0.395-0.093-0.594-0.324c-0.111-1.244,0.744-2.663-0.879-3.673l1.409-1.33c-0.728-0.961-1.716,1.736-2.93,0.14
		c-0.955-1.093,1.239-0.938,1.552-1.538c-1.039-0.367-3.107-0.879-2.158-2.509C692.785,234.886,692.641,235.275,692.883,235.597z
		 M687.488,222.625c0.351,0.149,1.314,0.351,0.711,0.806C686.756,223.675,687.294,223.205,687.488,222.625z M675.939,204.602
		c0.463-0.012,0.431,0.353,0.17,0.872C675.895,205.299,675.802,205.025,675.939,204.602z M638.538,160.041l0.05-0.006
		C638.688,160.709,638.664,160.463,638.538,160.041z M638.073,158.849c-0.168-0.021-0.247,0.059-0.311,0.177
		c0.22-0.072,0.397,0.135,0.539,0.417C638.418,159.235,638.439,159.013,638.073,158.849z M693.083,275.286l0.181-0.271
		C693.627,275.491,693.369,275.385,693.083,275.286z"/>
	<path fill="#AFB700" d="M678.603,205.95c-0.153,0.16-0.352,0.281-0.555,0.401C678.285,206.354,678.505,206.247,678.603,205.95z"/>
	<path fill="#AFB700" d="M695.939,243.799l-0.004,0.044c0.068,0.005,0.142-0.004,0.212-0.018L695.939,243.799z"/>
	<path fill="#AFB700" d="M656.061,169.009c0.041,0.291-0.025,0.513-0.126,0.704C656.152,169.573,656.254,169.355,656.061,169.009z"
		/>
	<path fill="#AFB700" d="M633.136,154.625l0.612,0.493c-0.252-0.277-0.214-0.493-0.237-0.722
		C633.388,154.526,633.294,154.811,633.136,154.625z"/>
	<path fill="#AFB700" d="M632.046,146.453c-0.138-0.034-0.173-0.178-0.308-0.209l-0.19,0.224
		C631.883,146.826,632.289,146.916,632.046,146.453z"/>
	<path fill="#AFB700" d="M634.539,152.417c0.426-0.459-0.052-0.696-0.483-1.047l0.064,0.076
		C633.388,151.887,633.959,152.156,634.539,152.417z"/>
	<path fill="#AFB700" d="M633.965,151.286c-0.134-0.113-0.257-0.234-0.337-0.381C633.336,151.078,633.704,151.11,633.965,151.286z"
		/>
	<path fill="#AFB700" d="M636.772,157.932c-0.027-0.318-0.766,0.439-0.643,0.145C635.286,158.414,637.982,158.752,636.772,157.932z"
		/>
	<polygon fill="#AFB700" points="635.77,150.727 635.331,151.379 635.993,151.201 	"/>
	<path fill="#AFB700" d="M638.21,154.376l-0.407-0.809c-0.094,0.096-0.228,0.066-0.365,0.001
		C637.773,153.998,638.041,154.551,638.21,154.376z"/>
	<path fill="#AFB700" d="M637.438,153.569c-0.173-0.224-0.363-0.414-0.566-0.448C636.98,153.231,637.212,153.462,637.438,153.569z"
		/>
	<polygon fill="#AFB700" points="636.745,151.471 636.798,151.775 637.167,152.279 	"/>
	<path fill="#AFB700" d="M644.144,161.742l0.784,0.604c0.312-0.127,0.312-0.463,0-0.667
		C644.611,161.636,644.301,161.427,644.144,161.742z"/>
	<path fill="#AFB700" d="M644.321,157.844c0.029,0.309-0.111,0.453-0.251,0.756l0.905-0.703L644.321,157.844z"/>
	<path fill="#AFB700" d="M646.319,159.857c0.313-0.126,1.623,0.514,0.786-0.398C646.791,159.583,645.974,158.994,646.319,159.857z"
		/>
	<polygon fill="#AFB700" points="653.972,172.367 653.805,172.18 652.007,173.512 	"/>
	<path fill="#AFB700" d="M666.065,179.821c-0.167-1.282-1.412,0.583-1.396-0.687c-0.633,0.087-0.016,1.037-0.586,1.074
		C664.979,180.461,664.9,180.956,666.065,179.821z"/>
	<path fill="#AFB700" d="M664.083,180.208c-0.146-0.041-0.309-0.076-0.508-0.097C663.813,180.198,663.962,180.212,664.083,180.208z"
		/>
	<polygon fill="#AFB700" points="699.727,319.238 699.783,319.977 699.764,319.497 	"/>
	<path fill="#AFB700" d="M699.885,320.657l-0.01,0.172l0.029,0.443C699.898,321.137,699.898,321.143,699.885,320.657z"/>
	<path fill="#AFB700" d="M689.793,219.416l-0.396,0.101c-0.356,0.274-0.322,0.45-0.245,0.804L689.793,219.416z"/>
	<polygon fill="#AFB700" points="692.186,229.517 692.158,229.34 690.867,230.166 	"/>
	<path fill="#AFB700" d="M696.66,237.103c-0.05-0.354-0.483-0.649-0.541-1.005C696.61,236.749,694.979,237.761,696.66,237.103z"/>
</g>
<g>
	<path fill="#00A8D7" d="M632.289,72.783c-0.04-0.047-0.179-0.216-0.213-0.256C632.518,73.078,632.278,72.766,632.289,72.783z"/>
	<polygon fill="#00A8D7" points="636.995,77.843 636.871,77.794 637.668,78.43 	"/>
	<path fill="#00A8D7" d="M641.409,82.535c-0.152-0.727-1.652-1.641-2.35-2.574l-0.087-0.189l-0.519-0.192
		C639.423,80.581,640.804,81.744,641.409,82.535z"/>
	<path fill="#00A8D7" d="M643.018,85.808c0-0.302,0.596,0.446-0.478-0.654c0.029,0.066,0.047,0.098,0.062,0.144
		C642.692,85.406,642.804,85.545,643.018,85.808z"/>
	<path fill="#00A8D7" d="M642.602,85.298C642.159,84.79,642.78,85.752,642.602,85.298L642.602,85.298z"/>
	<path fill="#00A8D7" d="M644.712,87.599l-0.713-0.543c0.036,0.233,0.519,0.867,0.265,0.707
		C644.919,88.393,644.899,88.146,644.712,87.599z"/>
	<path fill="#00A8D7" d="M645.555,87.933l-0.363-0.283C645.206,87.75,645.271,87.855,645.555,87.933z"/>
	<path fill="#00A8D7" d="M644.425,87.037l0.767,0.613c-0.015-0.166,0.101-0.305-0.342-0.292
		C645.022,87.297,644.778,87.269,644.425,87.037z"/>
	<path fill="#00A8D7" d="M644.123,86.559c-0.252-0.461-0.639-0.989,0.087-0.456C643.013,84.892,642.951,85.321,644.123,86.559z"/>
	<path fill="#00A8D7" d="M641.931,82.458l-0.393-0.558l-0.498-0.313C641.289,81.741,641.873,82.581,641.931,82.458z"/>
	<path fill="#00A8D7" d="M648.101,92.025c0.142-0.064,0.079-0.506,0.174-0.687l-0.555-0.375
		C647.872,91.287,648.227,91.833,648.101,92.025z"/>
	<path fill="#00A8D7" d="M648.274,91.339l0.832,0.549C648.537,91.22,648.348,91.184,648.274,91.339z"/>
	<polygon fill="#00A8D7" points="646.121,87.581 644.723,86.707 646.344,87.803 	"/>
	<polygon fill="#00A8D7" points="650.527,94.871 649.895,94.721 650.955,95.06 	"/>
	<path fill="#00A8D7" d="M652.147,96.746c-0.481-0.1-0.082,0.856-0.487,0.649c0.434,0.511,0.987,0.775,1.491,1.007
		C652.713,98.062,652.405,97.552,652.147,96.746z"/>
	<path fill="#00A8D7" d="M653.964,98.824c-0.229-0.16-0.514-0.285-0.813-0.422C653.386,98.58,653.639,98.733,653.964,98.824z"/>
	<path fill="#00A8D7" d="M650.175,93.183c-0.02,0.122-0.103,0.409,0.183,0.896l0.072-0.605L650.175,93.183z"/>
	<path fill="#00A8D7" d="M650.43,93.452v0.021c0.268,0.314,0.464,0.536,0.545,0.629C650.901,94.022,650.74,93.826,650.43,93.452z"/>
	<path fill="#00A8D7" d="M650.11,93.108l0.064,0.074C650.181,93.125,650.175,93.096,650.11,93.108z"/>
	<path fill="#00A8D7" d="M647.658,89.695c0.542,0.272,1.559,0.959,0.985-0.116C648.163,89.471,648.487,90.094,647.658,89.695z"/>
	<path fill="#00A8D7" d="M650.181,92.363l-0.642-0.829c-0.066,0.095-0.056,0.348-0.337,0.221L650.181,92.363z"/>
	<polygon fill="#00A8D7" points="650.627,92.638 650.181,92.363 650.419,92.674 	"/>
	<path fill="#00A8D7" d="M653.237,97.059c0.438,0.205,0.755,0.583,1.124,0.997c-0.296-0.545-0.636-1.067-0.993-1.531
		C653.195,96.57,652.838,96.563,653.237,97.059z"/>
	<path fill="#00A8D7" d="M651.971,95.215l0.088,0.054C652.048,95.194,652.021,95.148,651.971,95.215z"/>
	<polygon fill="#00A8D7" points="657.733,102.373 657.758,102.23 657.667,102.284 	"/>
	<path fill="#00A8D7" d="M653.369,96.379c-0.208-0.421-0.463-0.544-0.727-0.641c0.237,0.231,0.483,0.488,0.726,0.785
		C653.441,96.504,653.479,96.477,653.369,96.379z"/>
	<path fill="#00A8D7" d="M655.064,99.874c-0.058-0.267-0.144-0.544-0.248-0.826C654.83,99.348,654.91,99.905,655.064,99.874z"/>
	<path fill="#00A8D7" d="M652.062,95.475l-0.059-0.036C652.021,95.622,652.048,95.575,652.062,95.475z"/>
	<path fill="#00A8D7" d="M652.062,95.475c0.194,0.133,0.39,0.195,0.581,0.264c-0.2-0.186-0.381-0.362-0.584-0.47
		C652.073,95.333,652.073,95.411,652.062,95.475z"/>
	<path fill="#00A8D7" d="M661.657,101.032c-0.479,0.325-1.633-0.219-1.876-1.381c-0.973-0.476-1.811,1.206-2.023,2.58
		c0.196-0.138,0.354-0.286,1.248,0.292c0.003-0.491-0.94-2.238-0.021-1.905c1.098,0.847,0.585,0.985,0.796,1.694
		c0.142-0.899,1.885,0.631,2.485-0.311l-1.078-0.648C661.29,101.228,661.773,101.378,661.657,101.032z"/>
	<path fill="#00A8D7" d="M656.579,100.655l-0.308-0.288c0.232,0.442,0.293,0.854,0.37,1.646c0.624,0.379,0.864,0.355,1.025,0.271
		l-1.234-1.69L656.579,100.655z"/>
	<path fill="#00A8D7" d="M655.094,98.869c0.601-0.111,1.421,0.515,1.46-0.384c-0.826-0.933-0.891-0.357-1.526-0.776
		c1.355,1.478-0.575-0.246,0.104,1.104c-0.311-0.246-0.551-0.509-0.771-0.758c0.173,0.331,0.326,0.662,0.455,0.993l-0.007-0.058
		l-0.005-0.008l0.005-0.003c0-0.118,0.012-0.167,0.041-0.063l0.036,0.024c0.058-0.04,0.134-0.056,0.204-0.068
		c0.272,0.537-0.046,0.171-0.204,0.068l-0.077,0.039v0.011l1.462,1.378C656.067,99.979,655.721,99.573,655.094,98.869z"/>
	<path fill="#00A8D7" d="M650.031,89.711c0.018,0.069-0.003,0.086-0.025,0.112C650.141,89.875,650.201,89.886,650.031,89.711z"/>
	<path fill="#00A8D7" d="M650.45,90.467c-0.149-0.06-0.357-0.026-0.667-0.393c-0.203-0.376,0.144-0.14,0.223-0.251
		c-0.282-0.121-0.924-0.494-0.426,0.282l0.144,0.062c0.478,0.667,0.818,1.8,0.672,1.742C650.516,91.46,650.567,91.112,650.45,90.467
		z"/>
	<path fill="#00A8D7" d="M653.146,94.412l1.251,1.119l-0.24-0.958l-0.156,0.213C653.45,93.989,653.359,94.365,653.146,94.412z"/>
	<polygon fill="#00A8D7" points="657.634,102.725 657.031,102.977 658.285,103.132 	"/>
	<polygon fill="#00A8D7" points="659.026,104.386 658.555,104.707 659.158,104.928 	"/>
	<path fill="#00A8D7" d="M731.617,204.372l0.434,0.376C731.887,204.554,731.75,204.444,731.617,204.372z"/>
	<path fill="#00A8D7" d="M730.475,200.9l-0.494,0.098C730.291,201.059,730.504,201.051,730.475,200.9z"/>
	<path fill="#00A8D7" d="M689.6,147.601c-0.371,1.085-1.13,2.505-0.275,1.856l0.765-0.747
		C689.674,148.386,689.579,147.997,689.6,147.601z"/>
	<path fill="#00A8D7" d="M713.154,176.146l0.208-0.337c-0.428,0.016-0.826,0.035-1.196,0.049
		C712.469,175.948,712.807,176.043,713.154,176.146z"/>
	<path fill="#00A8D7" d="M717.57,174.528l-0.193,1.172C717.502,175.396,717.57,175.018,717.57,174.528z"/>
	<path fill="#00A8D7" d="M738.775,223.016l1.153,0.264C739.697,222.386,739.289,222.936,738.775,223.016z"/>
	<path fill="#00A8D7" d="M672.737,121.775c0.09,0.711,0.254,1.201,0.463,1.581C673.168,122.443,673.393,121.501,672.737,121.775z"/>
	<path fill="#00A8D7" d="M720.172,207.17c0.291,0.209,0.545,0.251,0.773,0.153C720.663,207.104,720.399,207.014,720.172,207.17z"/>
	<path fill="#00A8D7" d="M674.195,124.822c-0.009-0.158-0.015-0.256-0.02-0.395c-0.366-0.28-0.712-0.583-0.976-1.071
		C673.221,124.036,673.381,124.693,674.195,124.822z"/>
	<path fill="#00A8D7" d="M747.733,294.449c-0.021,0.063-0.032,0.098-0.058,0.167C747.738,294.629,747.742,294.553,747.733,294.449z"
		/>
	<path fill="#00A8D7" d="M745.186,315.255c-0.014-0.24-0.041-0.538-0.066-0.847C745.133,314.606,745.148,314.76,745.186,315.255z"/>
	<path fill="#00A8D7" d="M664.186,111.435C663.871,111.106,664.083,111.429,664.186,111.435L664.186,111.435z"/>
	<path fill="#00A8D7" d="M664.886,107.868c0.125,0.024,0.245,0.016,0.377-0.083C665.108,107.868,664.987,107.89,664.886,107.868z"/>
	<path fill="#00A8D7" d="M681.248,125.198l0.025,0.032C681.329,125.014,681.313,125.055,681.248,125.198z"/>
	<path fill="#00A8D7" d="M664.006,110.682c0.042,0.19,0.109,0.394,0.205,0.597C664.188,111.171,664.135,110.985,664.006,110.682z"/>
	<path fill="#00A8D7" d="M663.808,110.974c-0.083-0.147-0.136-0.254-0.197-0.357C663.487,110.649,663.464,110.735,663.808,110.974z"
		/>
	<path fill="#00A8D7" d="M664.61,111.913c-0.171-0.199-0.293-0.415-0.399-0.634c0.016,0.105,0.01,0.161-0.025,0.157
		C664.276,111.536,664.404,111.678,664.61,111.913z"/>
	<path fill="#00A8D7" d="M742.836,256.438c-0.02,0.038-0.037,0.065-0.066,0.114C743.181,256.954,743.093,256.759,742.836,256.438z"
		/>
	<polygon fill="#00A8D7" points="705.355,152.006 705.283,151.988 705.287,152.065 	"/>
	<path fill="#00A8D7" d="M706.979,153.012c-1.561,0.08-1.635-0.344-1.691-0.946l-2.371,2.059L706.979,153.012z"/>
	<path fill="#00A8D7" d="M734.773,212.532l0.526-1.45c1.979,0.844,1.787,2.03,2.724,0.514c-3.25,0.938-1.815-4.325-5.088-3.333
		l0.42-0.988c0.043,0.223,0.246,0.19,0.286,0.411c1.044-2.008-2.704-0.229-2.895-2.246c0.022-0.738,0.331-1.365,0.87-1.069
		l-1.307-1.141c-0.08-0.443,0.516-0.555,0.602-0.111l-1.035-2.102l0.104-0.019c-0.621-0.118-1.656-0.522-2.117-0.734
		c0.271-0.737,0.443,0.143,0.801-0.158l-1.216-0.9c0.661-0.829,1.835-0.145,2.013,0.744c2.809-2.402-1.109-0.71-0.213-3.872
		c0,0,0.906,0.953,0.879,0.962c1.558-1.475,0.496-2.078,1.101-3.833c-0.468,0.56-1.796,3.732-3.161,2.769
		c0.088-0.464-0.003-0.989-0.958-1.415c1.153-0.48,0.577-1.042,0.142-1.865l1.555-0.58c-0.844-0.737-1.586-0.337-2.511-0.583
		c-0.292-1.085,0.797-1.805,1.687-2.473c-0.473-1.749-1.402,1.946-2.533,0.129c-0.016-1.61-1.057-2.3-2.675-3.512
		c0.101-1.182,1.002-0.252,1.283-0.786l-1.577-0.296c-0.069-0.219,0.334-0.323,0.537-0.374c-0.783-0.492-1.543,0.63-2.441-0.292
		c-1.797,0.476,1.43-3.402-1.074-3.897c0.281-0.539,0.996-0.273,1.539-0.651c-2.076-1.301-1.615-1.2-3.969-1.937l0.307-1.745
		c-0.627,1.481-2.591,0.936-4.223,0.445c-0.369,0.595-0.693,1.106-0.816,1.407l-1.67-1.244c0.139-0.32,0.732-0.409,1.498-0.451
		c-0.181-0.043-0.357-0.086-0.515-0.123c0.235-0.863,1.251-0.99,2.31-0.98c-0.194,0.34-0.395,0.698-0.599,1.055
		c1.116-0.043,2.323-0.154,3.152-0.669c-0.229-0.026-0.489-0.161-0.692-0.347c0.301-0.015,0.555-0.056,0.678-0.177
		c0.126-0.135-0.295-0.146-0.818-0.229l1.454-1.207l-0.708,0.237l-0.142-2.704c-2.497-0.722-5.643-0.812-7.61-2.899
		c1.512-0.024,2.01-0.903,3.43-1.62c-1.131,1.465,1.661,1.577,2.054,3.021c-0.205-0.75,0.548-0.956,0.88-0.907l-2.596-1.574
		c1.184-0.557,0.603-0.942,0.75-1.796c-2.025,1.666-2.427-0.891-3.619-1.441c0.725-0.471,1.617-0.669,2.048,0.565
		c1.011-2.178-3.515-0.173-2.739-2.184c0.168,0.267,0.133,0.479,0.576,0.379c-1.018-0.278-1.338-2.145-0.488-2.139l0.164,0.267
		c-0.732-1.982-3.012-5.606-5.1-4.733c0.223-0.159,2.361-1.071,2.803-1.181l-8.127,0.523c1.736-0.656,4.74-3.932,6.572-3.006
		c-0.051-0.549-0.137-1.224-1.256-1.773c-0.031,0.417-1.779,2.06-2.167,1.757c1.026-2.105,0.445-1.294,1.036-3.497
		c-0.049,0.625-2.758,1.626-3.109,0.907c0.427-0.116,2.32-1.509,2.729-1.418l-3.42-0.225c0.688,0.159,2.015-1.154,2.425-1.937
		c-0.339,0.457-0.917-1.473-1.441-1.776l-0.063,1.044c-0.903-2.105-4.42,0.186-5.48-1.756c0.6-0.077,3.212-1.295,2.859-2.429
		c-1.443,0.309-6.711,1.667-8.559,0.587l0.436-0.741l-1.494-0.785c2.112-0.33,7.043-0.48,9.266-0.193
		c0.039-1.04,0.628-0.699-0.139-1.714c0.352-0.77,1.303-0.032,1.551,0.254l-1.287-2.71c-1.221,0.981-2.559-1.002-3.555-0.185
		l3.117,1.763c-1.239,0.977-4.699,0.93-5.58-0.961c0.215-0.789,2.469-1.219,2.871-1.544c-0.572,0.06-1.943-1.062-1.787-1.407
		l1.221,0.231c-0.264-1.234-2.827-0.337-2.511-2.26c-0.222-0.435,0.659-2.241-0.11-1.795c-0.883,1.599-5.106,4.774-6.449,5.1
		c0-0.202-0.143-2.944,0.188-3.862c0.576-1.388,3.245-0.893,3.755-2.083c-0.346,0.21-1.02,0.158-1.257,0.108
		c-0.035-0.595,1.128-0.563,0.3-1.315c-1.298,0.721-1.275-1.826-1.322,0.322c-0.99-0.594-0.459-1.072-1.282-2.024
		c-0.508,0.872-3.229,1-4.176,0.39c0.325-0.168,0.561-0.641,0.657-0.861c-1.208-1.816-1.421-3.133-2.652-4.753
		c0.147-0.35-0.146-1.373,0.565-1.398c-0.372-0.085-0.89-0.016-1.304-0.494c0.149-1.671,1.009,0.995,1.523-0.596
		c-0.661,0.419-1.854-0.617-2.769-1.029c-0.747,0.951,1.078,1.783,2.02,2.188c-1.313,1.029-3.607,0.861-5.405-0.391
		c-1.286-1.113,0.375-1.234,0.028-1.329c-1.638-2.736-3.729-0.404-4.509-3.139c0.063-1.404,1.421-1.251,1.803-1.866
		c1.191,0.793,0.919,1.968,1.558,2.646l-0.397-1.156c0.53,0.13,1.351,0.636,1.435,1.216c0.126-1.236-3.416-4.112-4.468-6.426
		c-0.529-0.123-1.254-0.482-1.292,0.018l0.604,0.496c-0.083,1.01-1.712-0.443-1.325,0.517c-1.066-0.451-2.382-0.833-3.012-2.206
		l0.549-0.849c-0.188,0.211,0.178,1.105,0.67,1.221c-0.705-0.183-0.478-2.555-1.845-2.231l0.16,1.216
		c-1.036-0.466-2.557-0.812-3.141-2.013c-0.308,1.058,0.27,0.158,0.032,1.587c0.507-1.506,1.981,2.62,2.271,0.671
		c-0.375,1.579,0.609,1.618,0.516,3.319c0.224-0.244,0.208-0.75,0.747,0.199c0.105-0.025,0.27-0.019,0.366-0.009l0.029,0.074
		l-0.008-0.072c0.064,0.003,0.075,0,0-0.028c-0.054-0.295-0.054-0.569,0.032-0.756c0.908-0.08,1.979,1.255,2.662,1.438
		c0.285,0.596-0.469,0.047-0.523,0.554l1.017,0.271c-0.528,0.561,0.081,2.148-1.199,1.271l0.807,1.077
		c0.158,0.909,0.688,1.882,1.368,2.19c0.261,0.609,1.704,0.675,0.86,0.65c0.036-0.028,1.635,1.395,1.635,1.395l-0.149,0.148
		c1.07,1.808,3.577,2.65,3.669,5.606c0.573,0.442,1.212,0.867,1.673,1.991l-0.498,0.67c0.738,0.57,0.876,2.718,1.771,2.527
		c-1.221,2.119,2.058,3.883,2.64,5.418l0.932-0.597c0.563,0.93,1.425,1.598,2.572,2.438l0.771-0.642
		c1.34,0.485,1.219,2.813,2.189,4.374c-0.391,0.118-0.542-0.344-0.517-0.763c-0.812,3.205,3.809,3.037,3.412,5.707
		c0.58,0.217,0.657,0.599,0.615,1.043c-0.025-0.04-0.064-0.063-0.111-0.075c0.018,0.05,0.049,0.116,0.096,0.182
		c-0.039,0.288-0.102,0.598-0.121,0.901c0.111-0.321,0.188-0.608,0.179-0.809c0.218,0.315,0.63,0.743,1.148,1.087l-0.838,0.831
		c0.034,0.035,0.05,0.054,0.091,0.094c-0.072,0.709,0.695,0.092,1.271-0.633c0.308,0.143,0.635,0.245,0.981,0.269
		c-1.342,1.395,1.318,0.942-0.058,2.546c1.036-0.193,2.121,2.055,4.063,1.223c-0.221,0.159-0.24,0.372-0.419,0.119
		c0.132,0.668,0.265,1.333,1.072,1.515l-1.144,1.015l2.479,0.135c-0.34,1.198-0.626,1.769-2.072,1.658
		c2.612,0.802,1.446,1.051,3.908,1.607l-0.9,0.431c0.378,0.493,2.016,0.688,1.461,1.441c-1.013,2.17,2.938,6.207,3.006,10.191
		c2.328-2.016-0.427,2.087,1.694,1.123c-0.53,0.514-0.662,1.134-1.471,0.915c1.454,1.273,0.245,2.91,2.572,3.111
		c-0.539,0.509-1.107,0.136-1.403,0.49c0.209,0.056,0.824,0.222,0.53,0.584c-0.294,0.353-0.656,0.037-1.067-0.073
		c0.956,1.562,3.01,0.738,4.923-0.068c-0.438,1.269-0.097,1.615,1.44,1.612c-0.453,0.59-0.836,1.384-1.593,0.479
		c0.259,0.597,0.911,3.934,2.38,3.302c-0.3,0.369,0.256,0.88,0.498,0.955c0.496,1.37,0.406,1.551,1.13,2.787l0.087-0.476
		c2.051-0.328,0.886,0.897,1.572,1.851l-0.203,0.054c-0.25,3.009,1.099,0.763,0.645,3.813l1.087-0.634
		c2.55-0.855-0.516,2.75,1.036,3.716l0.432-0.78c1.181,0.404-2.406,3.534-2.382,4.403c-0.142,0.251-0.463-0.114-0.721-0.275
		c-0.575,2.563,1.611-0.375,2.619,0.946c-0.688,0.602-2.212,0.505-1.923,1.546c-0.43,0.744,3.947,1.771,2.854,3.797
		c0.509-0.547,1.021-1.1,1.747-0.58c0.617,0.997-1.278,3.804,1.045,4.026c-0.117,0.201-0.261,0.313-0.412,0.376
		c0.809,0.628,1.836,2.353,3.078,2.461c-3.642,2.172,3.811,4.454,0.197,5.704l1.145,2.454l-0.391,0.056
		c0.377,1.688,1.451,1.971,2.52,2.265c-0.119,0.458-0.543,0.289-0.737,0.317c0.018,2.644,0.258,2.815,2.628,4.299l-1.074,0.563
		c0.82,0.355-0.691,4.004,1.364,5.969c-0.132,0.013-0.36,0.028-0.581-0.114c2.111,2.307-0.996,7.135,3.271,7.058
		c-0.004,0,1.443,1.525,1.443,1.525c-0.256-2.397,1.778-0.088,2.195-1.209c0.436,0.868-0.617,2.67-1.084,1.595l0.151-0.225
		c-2.121,0.1-0.015,3.063-1.388,3.333c1.229,4.521,1.342,9.165,2.378,13.406l1.306-0.77l0.225,1.515
		c-0.244,0.458-0.979,0.737-1.146-0.337c-0.671,0.711,1.033,1.657,1.333,1.635c-0.129,2.198-1.771-0.511-1.673,0.137l0.289,0.848
		l0.117-0.227c0.705,0.6,1.308,0.555,1.506,1.851c-0.104,0.863-0.738,0.568-0.723,0.894c-0.092,0.018-0.117,0.131,0.064,0.498
		l0.302,1.9l0.87-0.93c0.68,0.75,0.305,1.79,1.293,0.716c-1.541,1.588,0.849,7.165,0.414,8.049c0.868,1.084,1.015,2.265,1.161,3.727
		c0.128-0.384,1.095-0.731,1.14,0.542c-2.074-0.203-0.533,2.409-1.74,3.578c0.759-1.006,0.832,3.523,1.84,1.973
		c0.008,1.061-0.68,0.135-0.975,0.973c1.141,2.412,0.381,5.519,1.048,8.574c0.194,0.036,0.433-0.503,0.8,0.138l-0.736,1.696
		c0.188,0.602,1.121,0.494,0.65,1.647c0.125-0.164,0.324-0.417,0.426-0.009c0.063,6.091,1.461,12.429,1.116,18.645
		c0.04-0.841,0.101-0.277,0.151,0.366c-0.005-0.419,0.139,0.013,0.203-0.068l-0.078,2.6c0.128,0.478,0.125,2.797,0.17,3.07
		l-0.014-0.822c0.042,1.101,0.197-1.53,0.395-1.357c-0.106-1.235,0.688-3.231,0.432-5.261c0.106-0.445,0.094,0.383,0.194,0.146
		c-0.108-0.515-0.128-1.132,0.029-2.282l0.041,0.131c0.193-3.228,0.378-4.61,0.778-8.261l-0.368,0.279
		c0.071-0.779,0.19-0.948,0.304-1.318c-0.545-0.877-0.113,2.198-0.689,1.399c0.778-1.062,0.111-5.507,1.066-6.259
		c0-1.206-0.523,0.381-0.535-0.819l0.291-0.34l-0.387-0.279c0.047-0.79,0.428-1.215,0.691-1.263
		c-0.032,0.195,0.07,0.542,0.091,0.746c0.378-1.051-0.123-2.889-0.003-3.249l-0.195,1.174c-0.377-3.261,0.166-7.353-0.953-10.428
		l-0.281,0.273c-0.775-2.351,0.186-1.973-0.29-4.6l0.087,0.089c-0.369-0.493-0.603-1.177-0.623-1.91
		c0.449,0.621,0.677-1.363,1.186-0.538c-0.885-2.54-0.625-1.234-2.098-2.781l0.552-0.479c-0.591-0.514-0.866-0.522-1.231-1.807
		c0.68,0.999,0.81-0.978,1.668,0.131c1.008-2.988-1.951-3.888-0.07-5.49c-1.972-0.972-0.666,2.556-1.146,1.907
		c-0.483,0.682-1.474-0.832-1.44-1.72c-0.101-0.879,2.097-1.884,1.779-4.116c0.019,0.225,0.159,0.213,0.18,0.438
		c0.373-0.923-0.87-1.519-0.219-2.688c-1.234-0.356-0.111-1.344-1.629-1.225l0.643,1.973c-0.538-1.089-2.472-1.827-1.918-3.882
		c0.332,0.086,0.822,0.57,1.105,0.916c0.354-0.64-0.443-1.015-0.1-1.676c1.584-0.146,0.696,2.412,2.01,3.437
		c0.556-0.724-1.396-2.146,0.311-1.834c-2.187-0.498-0.014-2.263-1.943-3.43l0.946-0.09c-0.188-0.209-0.721-0.608-0.786-1.049
		l1.361,0.539c-1.267-1,0.479-2.542-0.3-3.594c0.479,2.445-1.048,0.796-1.541,1.977c-1.876-2.717,2.168-2.269,1.083-5.56
		c0.224,0.426-0.257,1.851-0.846,1.238c0.074-0.687,0.29-1.623,0.734-2.14c-0.625-2.194-0.949,0.584-1.74-0.228
		c1.059-1.046-0.705-0.982-1.297-1.859l1.018-0.251c0.158-2.707-2.269-0.151-1.943-2.623l1.629,0.605l-0.605-1.099l1.224-0.051
		c-1.147-1.078-0.949-1.548-0.952-2.889c-0.67,0.485-1.951,0.335-2.285-0.756c0.426-0.923,1.116,0.153,0.548-1.375
		c0.763,0.173,1.693,0.343,0.896,1.289c0.365-0.022,0.758,0.176,1.113,0.157c0.511-1.008-0.355-2.105-0.518-2.673
		c0.015,0.232,0.025,0.513-0.092,0.687l-2.088-1.875c0.313-0.47,0.713-0.276,1.099-0.081c-0.229-0.434-0.812-0.614-1.085-1.263
		c0.924-0.071,1.818-0.372,2.477,0.482l-1.535-1.913c0.343-0.254,0.76-1.427,1.163-1.236c0.22-1.378-2.499-2.47-2.232-4.28
		c-0.194-0.031-0.409-0.144-0.626-0.447c-0.203-1.563,0.563-3.263-1.166-4.649l1.341-1.539c-0.837-1.251-1.61,2.017-3.005-0.056
		c-1.078-1.433,1.197-1.066,1.463-1.788c-1.102-0.532-3.277-1.337-2.437-3.282C734.604,211.645,734.492,212.115,734.773,212.532z
		 M728.058,196.018c0.381,0.216,1.397,0.549,0.82,1.052C727.398,197.241,727.908,196.712,728.058,196.018z M714.083,172.786
		c0.487,0.035,0.493,0.476,0.281,1.078C714.119,173.627,713.992,173.287,714.083,172.786z M667.827,114.932l0.058,0.001
		C668.091,115.731,668.025,115.441,667.827,114.932z M667.135,113.487c-0.187-0.047-0.27,0.038-0.321,0.165
		c0.234-0.053,0.465,0.208,0.668,0.557C667.583,113.979,667.572,113.726,667.135,113.487z M737.656,262.435l0.169-0.335
		C738.218,262.723,737.948,262.576,737.656,262.435z"/>
	<path fill="#00A8D7" d="M717.054,174.706c-0.141,0.182-0.341,0.309-0.539,0.434C716.764,175.164,716.988,175.057,717.054,174.706z"
		/>
	<path fill="#00A8D7" d="M738.558,222.968v0.056c0.075,0.01,0.146,0.004,0.218-0.008L738.558,222.968z"/>
	<path fill="#00A8D7" d="M688.373,127.769c0.081,0.343,0.037,0.6-0.045,0.811C688.548,128.442,688.628,128.198,688.373,127.769z"/>
	<path fill="#00A8D7" d="M660.994,107.929l0.759,0.655c-0.324-0.355-0.308-0.602-0.366-0.868
		C661.271,107.849,661.193,108.166,660.994,107.929z"/>
	<path fill="#00A8D7" d="M658.634,98.348c-0.15-0.056-0.214-0.227-0.366-0.279l-0.186,0.231
		C658.51,98.758,658.976,98.917,658.634,98.348z"/>
	<path fill="#00A8D7" d="M662.261,105.569c0.412-0.477-0.15-0.813-0.687-1.274l0.083,0.094
		C660.893,104.796,661.574,105.188,662.261,105.569z"/>
	<path fill="#00A8D7" d="M661.454,104.184c-0.157-0.147-0.311-0.306-0.428-0.487C660.725,103.857,661.144,103.946,661.454,104.184z"
		/>
	<path fill="#00A8D7" d="M665.548,112.253c-0.07-0.374-0.792,0.407-0.695,0.08C663.951,112.612,667.021,113.367,665.548,112.253z"/>
	<polygon fill="#00A8D7" points="663.406,103.784 663.01,104.478 663.725,104.365 	"/>
	<path fill="#00A8D7" d="M666.657,108.329l-0.574-0.993c-0.091,0.102-0.246,0.048-0.407-0.043
		C666.112,107.83,666.49,108.509,666.657,108.329z"/>
	<path fill="#00A8D7" d="M665.676,107.293c-0.225-0.283-0.463-0.529-0.69-0.595C665.116,106.841,665.412,107.138,665.676,107.293z"
		/>
	<polygon fill="#00A8D7" points="664.607,104.776 664.709,105.133 665.192,105.766 	"/>
	<path fill="#00A8D7" d="M674.298,117.672l0.946,0.812c0.331-0.107,0.288-0.498-0.093-0.783
		C674.802,117.609,674.43,117.322,674.298,117.672z"/>
	<path fill="#00A8D7" d="M673.979,113.139c0.079,0.366-0.063,0.514-0.17,0.844l0.905-0.696L673.979,113.139z"/>
	<path fill="#00A8D7" d="M676.461,115.762c0.324-0.107,1.854,0.818,0.811-0.364C676.938,115.504,675.96,114.7,676.461,115.762z"/>
	<polygon fill="#00A8D7" points="686.526,131.458 686.324,131.218 684.537,132.558 	"/>
	<path fill="#00A8D7" d="M700.612,141.819c-0.343-1.549-1.459,0.521-1.591-0.987c-0.671,0.024,0.108,1.231-0.506,1.207
		C699.516,142.449,699.49,143.027,700.612,141.819z"/>
	<path fill="#00A8D7" d="M698.516,142.038c-0.159-0.068-0.34-0.133-0.561-0.18C698.222,141.989,698.391,142.028,698.516,142.038z"/>
	<polygon fill="#00A8D7" points="745.252,318.678 745.302,319.62 745.285,319.016 	"/>
	<path fill="#00A8D7" d="M745.395,320.489l-0.022,0.219l0.028,0.564C745.4,321.09,745.4,321.038,745.395,320.489z"/>
	<path fill="#00A8D7" d="M730.127,192.291l-0.4,0.086c-0.348,0.305-0.286,0.523-0.169,0.964L730.127,192.291z"/>
	<polygon fill="#00A8D7" points="733.527,204.95 733.484,204.725 732.223,205.637 	"/>
	<path fill="#00A8D7" d="M738.789,214.696c-0.085-0.441-0.554-0.84-0.641-1.284C738.704,214.255,737.119,215.381,738.789,214.696z"
		/>
</g>
<rect x="351.718" y="130.516" fill-rule="evenodd" clip-rule="evenodd" fill="#01040A" width="26.054" height="24.602"/>
</g>
</svg>
